﻿{"frames": {

"question0000":
{
	"frame": {"x":0,"y":0,"w":725,"h":500},
	"rotated": false,
	"trimmed": false,
	"spriteSourceSize": {"x":0,"y":0,"w":725,"h":500},
	"sourceSize": {"w":725,"h":500}
},
"question0001":
{
	"frame": {"x":725,"y":0,"w":725,"h":500},
	"rotated": false,
	"trimmed": false,
	"spriteSourceSize": {"x":0,"y":0,"w":725,"h":500},
	"sourceSize": {"w":725,"h":500}
},
"question0002":
{
	"frame": {"x":0,"y":500,"w":725,"h":500},
	"rotated": false,
	"trimmed": false,
	"spriteSourceSize": {"x":0,"y":0,"w":725,"h":500},
	"sourceSize": {"w":725,"h":500}
},
"question0003":
{
	"frame": {"x":725,"y":500,"w":725,"h":500},
	"rotated": false,
	"trimmed": false,
	"spriteSourceSize": {"x":0,"y":0,"w":725,"h":500},
	"sourceSize": {"w":725,"h":500}
},
"question0004":
{
	"frame": {"x":0,"y":1000,"w":725,"h":500},
	"rotated": false,
	"trimmed": false,
	"spriteSourceSize": {"x":0,"y":0,"w":725,"h":500},
	"sourceSize": {"w":725,"h":500}
},
"question0005":
{
	"frame": {"x":725,"y":1000,"w":725,"h":500},
	"rotated": false,
	"trimmed": false,
	"spriteSourceSize": {"x":0,"y":0,"w":725,"h":500},
	"sourceSize": {"w":725,"h":500}
},
"question0006":
{
	"frame": {"x":0,"y":1500,"w":725,"h":500},
	"rotated": false,
	"trimmed": false,
	"spriteSourceSize": {"x":0,"y":0,"w":725,"h":500},
	"sourceSize": {"w":725,"h":500}
},
"question0007":
{
	"frame": {"x":725,"y":1500,"w":725,"h":500},
	"rotated": false,
	"trimmed": false,
	"spriteSourceSize": {"x":0,"y":0,"w":725,"h":500},
	"sourceSize": {"w":725,"h":500}
},
"question0008":
{
	"frame": {"x":0,"y":2000,"w":725,"h":500},
	"rotated": false,
	"trimmed": false,
	"spriteSourceSize": {"x":0,"y":0,"w":725,"h":500},
	"sourceSize": {"w":725,"h":500}
},
"question0009":
{
	"frame": {"x":725,"y":2000,"w":725,"h":500},
	"rotated": false,
	"trimmed": false,
	"spriteSourceSize": {"x":0,"y":0,"w":725,"h":500},
	"sourceSize": {"w":725,"h":500}
}},
"meta": {
	"app": "Adobe Animate",
	"version": "18.0.0.107",
	"image": "question.png",
	"format": "RGBA8888",
	"size": {"w":2048,"h":4096},
	"scale": "1"
}
}
