﻿{"frames": [

{
	"filename": "ch1 instance 10000",
	"frame": {"x":0,"y":0,"w":286,"h":278},
	"rotated": false,
	"trimmed": false,
	"spriteSourceSize": {"x":0,"y":0,"w":286,"h":278},
	"sourceSize": {"w":286,"h":278}
}
,{
	"filename": "ch1 instance 10001",
	"frame": {"x":286,"y":0,"w":286,"h":278},
	"rotated": false,
	"trimmed": false,
	"spriteSourceSize": {"x":0,"y":0,"w":286,"h":278},
	"sourceSize": {"w":286,"h":278}
}
,{
	"filename": "ch1 instance 10002",
	"frame": {"x":572,"y":0,"w":286,"h":278},
	"rotated": false,
	"trimmed": false,
	"spriteSourceSize": {"x":0,"y":0,"w":286,"h":278},
	"sourceSize": {"w":286,"h":278}
}
,{
	"filename": "ch1 instance 10003",
	"frame": {"x":0,"y":278,"w":286,"h":278},
	"rotated": false,
	"trimmed": false,
	"spriteSourceSize": {"x":0,"y":0,"w":286,"h":278},
	"sourceSize": {"w":286,"h":278}
}
,{
	"filename": "ch1 instance 10004",
	"frame": {"x":286,"y":278,"w":286,"h":278},
	"rotated": false,
	"trimmed": false,
	"spriteSourceSize": {"x":0,"y":0,"w":286,"h":278},
	"sourceSize": {"w":286,"h":278}
}
,{
	"filename": "ch1 instance 10005",
	"frame": {"x":572,"y":278,"w":286,"h":278},
	"rotated": false,
	"trimmed": false,
	"spriteSourceSize": {"x":0,"y":0,"w":286,"h":278},
	"sourceSize": {"w":286,"h":278}
}
,{
	"filename": "ch1 instance 10006",
	"frame": {"x":0,"y":556,"w":286,"h":278},
	"rotated": false,
	"trimmed": false,
	"spriteSourceSize": {"x":0,"y":0,"w":286,"h":278},
	"sourceSize": {"w":286,"h":278}
}
,{
	"filename": "ch1 instance 10007",
	"frame": {"x":286,"y":556,"w":286,"h":278},
	"rotated": false,
	"trimmed": false,
	"spriteSourceSize": {"x":0,"y":0,"w":286,"h":278},
	"sourceSize": {"w":286,"h":278}
}
,{
	"filename": "ch1 instance 10008",
	"frame": {"x":572,"y":556,"w":286,"h":278},
	"rotated": false,
	"trimmed": false,
	"spriteSourceSize": {"x":0,"y":0,"w":286,"h":278},
	"sourceSize": {"w":286,"h":278}
}
,{
	"filename": "ch1 instance 10009",
	"frame": {"x":0,"y":834,"w":286,"h":278},
	"rotated": false,
	"trimmed": false,
	"spriteSourceSize": {"x":0,"y":0,"w":286,"h":278},
	"sourceSize": {"w":286,"h":278}
}
,{
	"filename": "ch1 instance 10010",
	"frame": {"x":286,"y":834,"w":286,"h":278},
	"rotated": false,
	"trimmed": false,
	"spriteSourceSize": {"x":0,"y":0,"w":286,"h":278},
	"sourceSize": {"w":286,"h":278}
}
,{
	"filename": "ch1 instance 10011",
	"frame": {"x":572,"y":834,"w":286,"h":278},
	"rotated": false,
	"trimmed": false,
	"spriteSourceSize": {"x":0,"y":0,"w":286,"h":278},
	"sourceSize": {"w":286,"h":278}
}],
"meta": {
	"app": "Adobe Animate",
	"version": "18.0.1.115",
	"image": "choiceimage.png",
	"format": "RGBA8888",
	"size": {"w":1024,"h":2048},
	"scale": "1"
}
}
