﻿{"frames": [

{
	"filename": "Symbol 3 copy 2 instance 10000",
	"frame": {"x":0,"y":0,"w":500,"h":198},
	"rotated": false,
	"trimmed": false,
	"spriteSourceSize": {"x":0,"y":0,"w":500,"h":198},
	"sourceSize": {"w":500,"h":198}
}
,{
	"filename": "Symbol 3 copy 2 instance 10001",
	"frame": {"x":500,"y":0,"w":500,"h":198},
	"rotated": false,
	"trimmed": false,
	"spriteSourceSize": {"x":0,"y":0,"w":500,"h":198},
	"sourceSize": {"w":500,"h":198}
}
,{
	"filename": "Symbol 3 copy 2 instance 10002",
	"frame": {"x":0,"y":198,"w":500,"h":198},
	"rotated": false,
	"trimmed": false,
	"spriteSourceSize": {"x":0,"y":0,"w":500,"h":198},
	"sourceSize": {"w":500,"h":198}
}
,{
	"filename": "Symbol 3 copy 2 instance 10003",
	"frame": {"x":500,"y":198,"w":500,"h":198},
	"rotated": false,
	"trimmed": false,
	"spriteSourceSize": {"x":0,"y":0,"w":500,"h":198},
	"sourceSize": {"w":500,"h":198}
}
,{
	"filename": "Symbol 3 copy 2 instance 10004",
	"frame": {"x":0,"y":396,"w":500,"h":198},
	"rotated": false,
	"trimmed": false,
	"spriteSourceSize": {"x":0,"y":0,"w":500,"h":198},
	"sourceSize": {"w":500,"h":198}
}
,{
	"filename": "Symbol 3 copy 2 instance 10005",
	"frame": {"x":500,"y":396,"w":500,"h":198},
	"rotated": false,
	"trimmed": false,
	"spriteSourceSize": {"x":0,"y":0,"w":500,"h":198},
	"sourceSize": {"w":500,"h":198}
}
,{
	"filename": "Symbol 3 copy 2 instance 10006",
	"frame": {"x":0,"y":594,"w":500,"h":198},
	"rotated": false,
	"trimmed": false,
	"spriteSourceSize": {"x":0,"y":0,"w":500,"h":198},
	"sourceSize": {"w":500,"h":198}
}
,{
	"filename": "Symbol 3 copy 2 instance 10007",
	"frame": {"x":500,"y":594,"w":500,"h":198},
	"rotated": false,
	"trimmed": false,
	"spriteSourceSize": {"x":0,"y":0,"w":500,"h":198},
	"sourceSize": {"w":500,"h":198}
}
,{
	"filename": "Symbol 3 copy 2 instance 10008",
	"frame": {"x":0,"y":792,"w":500,"h":198},
	"rotated": false,
	"trimmed": false,
	"spriteSourceSize": {"x":0,"y":0,"w":500,"h":198},
	"sourceSize": {"w":500,"h":198}
}
,{
	"filename": "Symbol 3 copy 2 instance 10009",
	"frame": {"x":500,"y":792,"w":500,"h":198},
	"rotated": false,
	"trimmed": false,
	"spriteSourceSize": {"x":0,"y":0,"w":500,"h":198},
	"sourceSize": {"w":500,"h":198}
}],
"meta": {
	"app": "Adobe Animate",
	"version": "18.0.1.115",
	"image": "ChoiceImages2.png",
	"format": "RGBA8888",
	"size": {"w":1024,"h":1024},
	"scale": "1"
}
}
