﻿{"frames": [

{
	"filename": "Symbol 3 copy 3 instance 10000",
	"frame": {"x":0,"y":0,"w":500,"h":197},
	"rotated": false,
	"trimmed": false,
	"spriteSourceSize": {"x":0,"y":0,"w":500,"h":197},
	"sourceSize": {"w":500,"h":197}
}
,{
	"filename": "Symbol 3 copy 3 instance 10001",
	"frame": {"x":500,"y":0,"w":500,"h":197},
	"rotated": false,
	"trimmed": false,
	"spriteSourceSize": {"x":0,"y":0,"w":500,"h":197},
	"sourceSize": {"w":500,"h":197}
}
,{
	"filename": "Symbol 3 copy 3 instance 10002",
	"frame": {"x":0,"y":197,"w":500,"h":197},
	"rotated": false,
	"trimmed": false,
	"spriteSourceSize": {"x":0,"y":0,"w":500,"h":197},
	"sourceSize": {"w":500,"h":197}
}
,{
	"filename": "Symbol 3 copy 3 instance 10003",
	"frame": {"x":500,"y":197,"w":500,"h":197},
	"rotated": false,
	"trimmed": false,
	"spriteSourceSize": {"x":0,"y":0,"w":500,"h":197},
	"sourceSize": {"w":500,"h":197}
}
,{
	"filename": "Symbol 3 copy 3 instance 10004",
	"frame": {"x":0,"y":394,"w":500,"h":197},
	"rotated": false,
	"trimmed": false,
	"spriteSourceSize": {"x":0,"y":0,"w":500,"h":197},
	"sourceSize": {"w":500,"h":197}
}
,{
	"filename": "Symbol 3 copy 3 instance 10005",
	"frame": {"x":500,"y":394,"w":500,"h":197},
	"rotated": false,
	"trimmed": false,
	"spriteSourceSize": {"x":0,"y":0,"w":500,"h":197},
	"sourceSize": {"w":500,"h":197}
}
,{
	"filename": "Symbol 3 copy 3 instance 10006",
	"frame": {"x":0,"y":591,"w":500,"h":197},
	"rotated": false,
	"trimmed": false,
	"spriteSourceSize": {"x":0,"y":0,"w":500,"h":197},
	"sourceSize": {"w":500,"h":197}
}
,{
	"filename": "Symbol 3 copy 3 instance 10007",
	"frame": {"x":500,"y":591,"w":500,"h":197},
	"rotated": false,
	"trimmed": false,
	"spriteSourceSize": {"x":0,"y":0,"w":500,"h":197},
	"sourceSize": {"w":500,"h":197}
}
,{
	"filename": "Symbol 3 copy 3 instance 10008",
	"frame": {"x":0,"y":788,"w":500,"h":197},
	"rotated": false,
	"trimmed": false,
	"spriteSourceSize": {"x":0,"y":0,"w":500,"h":197},
	"sourceSize": {"w":500,"h":197}
}
,{
	"filename": "Symbol 3 copy 3 instance 10009",
	"frame": {"x":500,"y":788,"w":500,"h":197},
	"rotated": false,
	"trimmed": false,
	"spriteSourceSize": {"x":0,"y":0,"w":500,"h":197},
	"sourceSize": {"w":500,"h":197}
}],
"meta": {
	"app": "Adobe Animate",
	"version": "18.0.1.115",
	"image": "question.png",
	"format": "RGBA8888",
	"size": {"w":1024,"h":1024},
	"scale": "1"
}
}
