﻿{"frames": [

{
	"filename": "question0000",
	"frame": {"x":0,"y":0,"w":533,"h":533},
	"rotated": false,
	"trimmed": false,
	"spriteSourceSize": {"x":0,"y":0,"w":533,"h":533},
	"sourceSize": {"w":533,"h":533}
}
,{
	"filename": "question0001",
	"frame": {"x":533,"y":0,"w":533,"h":533},
	"rotated": false,
	"trimmed": false,
	"spriteSourceSize": {"x":0,"y":0,"w":533,"h":533},
	"sourceSize": {"w":533,"h":533}
}
,{
	"filename": "question0002",
	"frame": {"x":1066,"y":0,"w":533,"h":533},
	"rotated": false,
	"trimmed": false,
	"spriteSourceSize": {"x":0,"y":0,"w":533,"h":533},
	"sourceSize": {"w":533,"h":533}
}
,{
	"filename": "question0003",
	"frame": {"x":1599,"y":0,"w":533,"h":533},
	"rotated": false,
	"trimmed": false,
	"spriteSourceSize": {"x":0,"y":0,"w":533,"h":533},
	"sourceSize": {"w":533,"h":533}
}
,{
	"filename": "question0004",
	"frame": {"x":2132,"y":0,"w":533,"h":533},
	"rotated": false,
	"trimmed": false,
	"spriteSourceSize": {"x":0,"y":0,"w":533,"h":533},
	"sourceSize": {"w":533,"h":533}
}
,{
	"filename": "question0005",
	"frame": {"x":2665,"y":0,"w":533,"h":533},
	"rotated": false,
	"trimmed": false,
	"spriteSourceSize": {"x":0,"y":0,"w":533,"h":533},
	"sourceSize": {"w":533,"h":533}
}
,{
	"filename": "question0006",
	"frame": {"x":3198,"y":0,"w":533,"h":533},
	"rotated": false,
	"trimmed": false,
	"spriteSourceSize": {"x":0,"y":0,"w":533,"h":533},
	"sourceSize": {"w":533,"h":533}
}
,{
	"filename": "question0007",
	"frame": {"x":0,"y":533,"w":533,"h":533},
	"rotated": false,
	"trimmed": false,
	"spriteSourceSize": {"x":0,"y":0,"w":533,"h":533},
	"sourceSize": {"w":533,"h":533}
}
,{
	"filename": "question0008",
	"frame": {"x":533,"y":533,"w":533,"h":533},
	"rotated": false,
	"trimmed": false,
	"spriteSourceSize": {"x":0,"y":0,"w":533,"h":533},
	"sourceSize": {"w":533,"h":533}
}
,{
	"filename": "question0009",
	"frame": {"x":1066,"y":533,"w":533,"h":533},
	"rotated": false,
	"trimmed": false,
	"spriteSourceSize": {"x":0,"y":0,"w":533,"h":533},
	"sourceSize": {"w":533,"h":533}
}
,{
	"filename": "question0010",
	"frame": {"x":1599,"y":533,"w":533,"h":533},
	"rotated": false,
	"trimmed": false,
	"spriteSourceSize": {"x":0,"y":0,"w":533,"h":533},
	"sourceSize": {"w":533,"h":533}
}
,{
	"filename": "question0011",
	"frame": {"x":2132,"y":533,"w":533,"h":533},
	"rotated": false,
	"trimmed": false,
	"spriteSourceSize": {"x":0,"y":0,"w":533,"h":533},
	"sourceSize": {"w":533,"h":533}
}
,{
	"filename": "question0012",
	"frame": {"x":2665,"y":533,"w":533,"h":533},
	"rotated": false,
	"trimmed": false,
	"spriteSourceSize": {"x":0,"y":0,"w":533,"h":533},
	"sourceSize": {"w":533,"h":533}
}
,{
	"filename": "question0013",
	"frame": {"x":3198,"y":533,"w":533,"h":533},
	"rotated": false,
	"trimmed": false,
	"spriteSourceSize": {"x":0,"y":0,"w":533,"h":533},
	"sourceSize": {"w":533,"h":533}
}
,{
	"filename": "question0014",
	"frame": {"x":0,"y":1066,"w":533,"h":533},
	"rotated": false,
	"trimmed": false,
	"spriteSourceSize": {"x":0,"y":0,"w":533,"h":533},
	"sourceSize": {"w":533,"h":533}
}
,{
	"filename": "question0015",
	"frame": {"x":533,"y":1066,"w":533,"h":533},
	"rotated": false,
	"trimmed": false,
	"spriteSourceSize": {"x":0,"y":0,"w":533,"h":533},
	"sourceSize": {"w":533,"h":533}
}
,{
	"filename": "question0016",
	"frame": {"x":1066,"y":1066,"w":533,"h":533},
	"rotated": false,
	"trimmed": false,
	"spriteSourceSize": {"x":0,"y":0,"w":533,"h":533},
	"sourceSize": {"w":533,"h":533}
}
,{
	"filename": "question0017",
	"frame": {"x":1599,"y":1066,"w":533,"h":533},
	"rotated": false,
	"trimmed": false,
	"spriteSourceSize": {"x":0,"y":0,"w":533,"h":533},
	"sourceSize": {"w":533,"h":533}
}
,{
	"filename": "question0018",
	"frame": {"x":2132,"y":1066,"w":533,"h":533},
	"rotated": false,
	"trimmed": false,
	"spriteSourceSize": {"x":0,"y":0,"w":533,"h":533},
	"sourceSize": {"w":533,"h":533}
}
,{
	"filename": "question0019",
	"frame": {"x":2665,"y":1066,"w":533,"h":533},
	"rotated": false,
	"trimmed": false,
	"spriteSourceSize": {"x":0,"y":0,"w":533,"h":533},
	"sourceSize": {"w":533,"h":533}
}
,{
	"filename": "question0020",
	"frame": {"x":3198,"y":1066,"w":533,"h":533},
	"rotated": false,
	"trimmed": false,
	"spriteSourceSize": {"x":0,"y":0,"w":533,"h":533},
	"sourceSize": {"w":533,"h":533}
}
,{
	"filename": "question0021",
	"frame": {"x":0,"y":1599,"w":533,"h":533},
	"rotated": false,
	"trimmed": false,
	"spriteSourceSize": {"x":0,"y":0,"w":533,"h":533},
	"sourceSize": {"w":533,"h":533}
}
,{
	"filename": "question0022",
	"frame": {"x":533,"y":1599,"w":533,"h":533},
	"rotated": false,
	"trimmed": false,
	"spriteSourceSize": {"x":0,"y":0,"w":533,"h":533},
	"sourceSize": {"w":533,"h":533}
}
,{
	"filename": "question0023",
	"frame": {"x":1066,"y":1599,"w":533,"h":533},
	"rotated": false,
	"trimmed": false,
	"spriteSourceSize": {"x":0,"y":0,"w":533,"h":533},
	"sourceSize": {"w":533,"h":533}
}
,{
	"filename": "question0024",
	"frame": {"x":1599,"y":1599,"w":533,"h":533},
	"rotated": false,
	"trimmed": false,
	"spriteSourceSize": {"x":0,"y":0,"w":533,"h":533},
	"sourceSize": {"w":533,"h":533}
}
,{
	"filename": "question0025",
	"frame": {"x":2132,"y":1599,"w":533,"h":533},
	"rotated": false,
	"trimmed": false,
	"spriteSourceSize": {"x":0,"y":0,"w":533,"h":533},
	"sourceSize": {"w":533,"h":533}
}
,{
	"filename": "question0026",
	"frame": {"x":2665,"y":1599,"w":533,"h":533},
	"rotated": false,
	"trimmed": false,
	"spriteSourceSize": {"x":0,"y":0,"w":533,"h":533},
	"sourceSize": {"w":533,"h":533}
}
,{
	"filename": "question0027",
	"frame": {"x":3198,"y":1599,"w":533,"h":533},
	"rotated": false,
	"trimmed": false,
	"spriteSourceSize": {"x":0,"y":0,"w":533,"h":533},
	"sourceSize": {"w":533,"h":533}
}
,{
	"filename": "question0028",
	"frame": {"x":0,"y":2132,"w":533,"h":533},
	"rotated": false,
	"trimmed": false,
	"spriteSourceSize": {"x":0,"y":0,"w":533,"h":533},
	"sourceSize": {"w":533,"h":533}
}
,{
	"filename": "question0029",
	"frame": {"x":533,"y":2132,"w":533,"h":533},
	"rotated": false,
	"trimmed": false,
	"spriteSourceSize": {"x":0,"y":0,"w":533,"h":533},
	"sourceSize": {"w":533,"h":533}
}],
"meta": {
	"app": "Adobe Animate",
	"version": "18.0.1.115",
	"image": "answer.png",
	"format": "RGBA8888",
	"size": {"w":4096,"h":4096},
	"scale": "1"
}
}
