﻿{"frames": [

{
	"filename": "Choices_mc instance 10000",
	"frame": {"x":0,"y":0,"w":330,"h":330},
	"rotated": false,
	"trimmed": false,
	"spriteSourceSize": {"x":0,"y":0,"w":330,"h":330},
	"sourceSize": {"w":330,"h":330}
}
,{
	"filename": "Choices_mc instance 10001",
	"frame": {"x":330,"y":0,"w":330,"h":330},
	"rotated": false,
	"trimmed": false,
	"spriteSourceSize": {"x":0,"y":0,"w":330,"h":330},
	"sourceSize": {"w":330,"h":330}
}
,{
	"filename": "Choices_mc instance 10002",
	"frame": {"x":660,"y":0,"w":330,"h":330},
	"rotated": false,
	"trimmed": false,
	"spriteSourceSize": {"x":0,"y":0,"w":330,"h":330},
	"sourceSize": {"w":330,"h":330}
}
,{
	"filename": "Choices_mc instance 10003",
	"frame": {"x":0,"y":330,"w":330,"h":330},
	"rotated": false,
	"trimmed": false,
	"spriteSourceSize": {"x":0,"y":0,"w":330,"h":330},
	"sourceSize": {"w":330,"h":330}
}
,{
	"filename": "Choices_mc instance 10004",
	"frame": {"x":330,"y":330,"w":330,"h":330},
	"rotated": false,
	"trimmed": false,
	"spriteSourceSize": {"x":0,"y":0,"w":330,"h":330},
	"sourceSize": {"w":330,"h":330}
}
,{
	"filename": "Choices_mc instance 10005",
	"frame": {"x":660,"y":330,"w":330,"h":330},
	"rotated": false,
	"trimmed": false,
	"spriteSourceSize": {"x":0,"y":0,"w":330,"h":330},
	"sourceSize": {"w":330,"h":330}
}
,{
	"filename": "Choices_mc instance 10006",
	"frame": {"x":0,"y":660,"w":330,"h":330},
	"rotated": false,
	"trimmed": false,
	"spriteSourceSize": {"x":0,"y":0,"w":330,"h":330},
	"sourceSize": {"w":330,"h":330}
}
,{
	"filename": "Choices_mc instance 10007",
	"frame": {"x":330,"y":660,"w":330,"h":330},
	"rotated": false,
	"trimmed": false,
	"spriteSourceSize": {"x":0,"y":0,"w":330,"h":330},
	"sourceSize": {"w":330,"h":330}
}
,{
	"filename": "Choices_mc instance 10008",
	"frame": {"x":660,"y":660,"w":330,"h":330},
	"rotated": false,
	"trimmed": false,
	"spriteSourceSize": {"x":0,"y":0,"w":330,"h":330},
	"sourceSize": {"w":330,"h":330}
}
,{
	"filename": "Choices_mc instance 10009",
	"frame": {"x":0,"y":990,"w":330,"h":330},
	"rotated": false,
	"trimmed": false,
	"spriteSourceSize": {"x":0,"y":0,"w":330,"h":330},
	"sourceSize": {"w":330,"h":330}
}
,{
	"filename": "Choices_mc instance 10010",
	"frame": {"x":330,"y":990,"w":330,"h":330},
	"rotated": false,
	"trimmed": false,
	"spriteSourceSize": {"x":0,"y":0,"w":330,"h":330},
	"sourceSize": {"w":330,"h":330}
}
,{
	"filename": "Choices_mc instance 10011",
	"frame": {"x":660,"y":990,"w":330,"h":330},
	"rotated": false,
	"trimmed": false,
	"spriteSourceSize": {"x":0,"y":0,"w":330,"h":330},
	"sourceSize": {"w":330,"h":330}
}
,{
	"filename": "Choices_mc instance 10012",
	"frame": {"x":0,"y":1320,"w":330,"h":330},
	"rotated": false,
	"trimmed": false,
	"spriteSourceSize": {"x":0,"y":0,"w":330,"h":330},
	"sourceSize": {"w":330,"h":330}
}],
"meta": {
	"app": "Adobe Animate",
	"version": "18.0.1.115",
	"image": "ChoiceImages1.png",
	"format": "RGBA8888",
	"size": {"w":1024,"h":2048},
	"scale": "1"
}
}
