﻿{"frames": {

"question0000":
{
	"frame": {"x":0,"y":0,"w":1146,"h":516},
	"rotated": false,
	"trimmed": false,
	"spriteSourceSize": {"x":0,"y":0,"w":1146,"h":516},
	"sourceSize": {"w":1146,"h":516}
},
"question0001":
{
	"frame": {"x":1146,"y":0,"w":1146,"h":516},
	"rotated": false,
	"trimmed": false,
	"spriteSourceSize": {"x":0,"y":0,"w":1146,"h":516},
	"sourceSize": {"w":1146,"h":516}
},
"question0002":
{
	"frame": {"x":2292,"y":0,"w":1146,"h":516},
	"rotated": false,
	"trimmed": false,
	"spriteSourceSize": {"x":0,"y":0,"w":1146,"h":516},
	"sourceSize": {"w":1146,"h":516}
},
"question0003":
{
	"frame": {"x":0,"y":516,"w":1146,"h":516},
	"rotated": false,
	"trimmed": false,
	"spriteSourceSize": {"x":0,"y":0,"w":1146,"h":516},
	"sourceSize": {"w":1146,"h":516}
},
"question0004":
{
	"frame": {"x":1146,"y":516,"w":1146,"h":516},
	"rotated": false,
	"trimmed": false,
	"spriteSourceSize": {"x":0,"y":0,"w":1146,"h":516},
	"sourceSize": {"w":1146,"h":516}
},
"question0005":
{
	"frame": {"x":2292,"y":516,"w":1146,"h":516},
	"rotated": false,
	"trimmed": false,
	"spriteSourceSize": {"x":0,"y":0,"w":1146,"h":516},
	"sourceSize": {"w":1146,"h":516}
},
"question0006":
{
	"frame": {"x":0,"y":1032,"w":1146,"h":516},
	"rotated": false,
	"trimmed": false,
	"spriteSourceSize": {"x":0,"y":0,"w":1146,"h":516},
	"sourceSize": {"w":1146,"h":516}
},
"question0007":
{
	"frame": {"x":1146,"y":1032,"w":1146,"h":516},
	"rotated": false,
	"trimmed": false,
	"spriteSourceSize": {"x":0,"y":0,"w":1146,"h":516},
	"sourceSize": {"w":1146,"h":516}
},
"question0008":
{
	"frame": {"x":2292,"y":1032,"w":1146,"h":516},
	"rotated": false,
	"trimmed": false,
	"spriteSourceSize": {"x":0,"y":0,"w":1146,"h":516},
	"sourceSize": {"w":1146,"h":516}
},
"question0009":
{
	"frame": {"x":0,"y":1548,"w":1146,"h":516},
	"rotated": false,
	"trimmed": false,
	"spriteSourceSize": {"x":0,"y":0,"w":1146,"h":516},
	"sourceSize": {"w":1146,"h":516}
},
"question0010":
{
	"frame": {"x":1146,"y":1548,"w":1146,"h":516},
	"rotated": false,
	"trimmed": false,
	"spriteSourceSize": {"x":0,"y":0,"w":1146,"h":516},
	"sourceSize": {"w":1146,"h":516}
},
"question0011":
{
	"frame": {"x":2292,"y":1548,"w":1146,"h":516},
	"rotated": false,
	"trimmed": false,
	"spriteSourceSize": {"x":0,"y":0,"w":1146,"h":516},
	"sourceSize": {"w":1146,"h":516}
},
"question0012":
{
	"frame": {"x":0,"y":2064,"w":1146,"h":516},
	"rotated": false,
	"trimmed": false,
	"spriteSourceSize": {"x":0,"y":0,"w":1146,"h":516},
	"sourceSize": {"w":1146,"h":516}
},
"question0013":
{
	"frame": {"x":1146,"y":2064,"w":1146,"h":516},
	"rotated": false,
	"trimmed": false,
	"spriteSourceSize": {"x":0,"y":0,"w":1146,"h":516},
	"sourceSize": {"w":1146,"h":516}
},
"question0014":
{
	"frame": {"x":2292,"y":2064,"w":1146,"h":516},
	"rotated": false,
	"trimmed": false,
	"spriteSourceSize": {"x":0,"y":0,"w":1146,"h":516},
	"sourceSize": {"w":1146,"h":516}
},
"question0015":
{
	"frame": {"x":0,"y":2580,"w":1146,"h":516},
	"rotated": false,
	"trimmed": false,
	"spriteSourceSize": {"x":0,"y":0,"w":1146,"h":516},
	"sourceSize": {"w":1146,"h":516}
},
"question0016":
{
	"frame": {"x":1146,"y":2580,"w":1146,"h":516},
	"rotated": false,
	"trimmed": false,
	"spriteSourceSize": {"x":0,"y":0,"w":1146,"h":516},
	"sourceSize": {"w":1146,"h":516}
},
"question0017":
{
	"frame": {"x":2292,"y":2580,"w":1146,"h":516},
	"rotated": false,
	"trimmed": false,
	"spriteSourceSize": {"x":0,"y":0,"w":1146,"h":516},
	"sourceSize": {"w":1146,"h":516}
},
"question0018":
{
	"frame": {"x":0,"y":3096,"w":1146,"h":516},
	"rotated": false,
	"trimmed": false,
	"spriteSourceSize": {"x":0,"y":0,"w":1146,"h":516},
	"sourceSize": {"w":1146,"h":516}
},
"question0019":
{
	"frame": {"x":1146,"y":3096,"w":1146,"h":516},
	"rotated": false,
	"trimmed": false,
	"spriteSourceSize": {"x":0,"y":0,"w":1146,"h":516},
	"sourceSize": {"w":1146,"h":516}
}},
"meta": {
	"app": "Adobe Animate",
	"version": "18.0.0.107",
	"image": "ChoiceImages1.png",
	"format": "RGBA8888",
	"size": {"w":4096,"h":4096},
	"scale": "1"
}
}
