﻿{"frames": [

{
	"filename": "ques10000",
	"frame": {"x":0,"y":0,"w":369,"h":372},
	"rotated": false,
	"trimmed": false,
	"spriteSourceSize": {"x":0,"y":0,"w":369,"h":372},
	"sourceSize": {"w":369,"h":372}
}
,{
	"filename": "ques10001",
	"frame": {"x":369,"y":0,"w":369,"h":372},
	"rotated": false,
	"trimmed": false,
	"spriteSourceSize": {"x":0,"y":0,"w":369,"h":372},
	"sourceSize": {"w":369,"h":372}
}
,{
	"filename": "ques10002",
	"frame": {"x":738,"y":0,"w":369,"h":372},
	"rotated": false,
	"trimmed": false,
	"spriteSourceSize": {"x":0,"y":0,"w":369,"h":372},
	"sourceSize": {"w":369,"h":372}
}
,{
	"filename": "ques10003",
	"frame": {"x":1107,"y":0,"w":369,"h":372},
	"rotated": false,
	"trimmed": false,
	"spriteSourceSize": {"x":0,"y":0,"w":369,"h":372},
	"sourceSize": {"w":369,"h":372}
}
,{
	"filename": "ques10004",
	"frame": {"x":1476,"y":0,"w":369,"h":372},
	"rotated": false,
	"trimmed": false,
	"spriteSourceSize": {"x":0,"y":0,"w":369,"h":372},
	"sourceSize": {"w":369,"h":372}
}
,{
	"filename": "ques10005",
	"frame": {"x":0,"y":372,"w":369,"h":372},
	"rotated": false,
	"trimmed": false,
	"spriteSourceSize": {"x":0,"y":0,"w":369,"h":372},
	"sourceSize": {"w":369,"h":372}
}
,{
	"filename": "ques10006",
	"frame": {"x":369,"y":372,"w":369,"h":372},
	"rotated": false,
	"trimmed": false,
	"spriteSourceSize": {"x":0,"y":0,"w":369,"h":372},
	"sourceSize": {"w":369,"h":372}
}
,{
	"filename": "ques10007",
	"frame": {"x":738,"y":372,"w":369,"h":372},
	"rotated": false,
	"trimmed": false,
	"spriteSourceSize": {"x":0,"y":0,"w":369,"h":372},
	"sourceSize": {"w":369,"h":372}
}
,{
	"filename": "ques10008",
	"frame": {"x":1107,"y":372,"w":369,"h":372},
	"rotated": false,
	"trimmed": false,
	"spriteSourceSize": {"x":0,"y":0,"w":369,"h":372},
	"sourceSize": {"w":369,"h":372}
}
,{
	"filename": "ques10009",
	"frame": {"x":1476,"y":372,"w":369,"h":372},
	"rotated": false,
	"trimmed": false,
	"spriteSourceSize": {"x":0,"y":0,"w":369,"h":372},
	"sourceSize": {"w":369,"h":372}
}
,{
	"filename": "ques10010",
	"frame": {"x":0,"y":744,"w":369,"h":372},
	"rotated": false,
	"trimmed": false,
	"spriteSourceSize": {"x":0,"y":0,"w":369,"h":372},
	"sourceSize": {"w":369,"h":372}
}
,{
	"filename": "ques10011",
	"frame": {"x":369,"y":744,"w":369,"h":372},
	"rotated": false,
	"trimmed": false,
	"spriteSourceSize": {"x":0,"y":0,"w":369,"h":372},
	"sourceSize": {"w":369,"h":372}
}
,{
	"filename": "ques10012",
	"frame": {"x":738,"y":744,"w":369,"h":372},
	"rotated": false,
	"trimmed": false,
	"spriteSourceSize": {"x":0,"y":0,"w":369,"h":372},
	"sourceSize": {"w":369,"h":372}
}
,{
	"filename": "ques10013",
	"frame": {"x":1107,"y":744,"w":369,"h":372},
	"rotated": false,
	"trimmed": false,
	"spriteSourceSize": {"x":0,"y":0,"w":369,"h":372},
	"sourceSize": {"w":369,"h":372}
}
,{
	"filename": "ques10014",
	"frame": {"x":1476,"y":744,"w":369,"h":372},
	"rotated": false,
	"trimmed": false,
	"spriteSourceSize": {"x":0,"y":0,"w":369,"h":372},
	"sourceSize": {"w":369,"h":372}
}],
"meta": {
	"app": "Adobe Animate",
	"version": "18.0.1.115",
	"image": "Choiceimages2.png",
	"format": "RGBA8888",
	"size": {"w":2048,"h":2048},
	"scale": "1"
}
}
