﻿{"frames": [

{
	"filename": "question0000",
	"frame": {"x":0,"y":0,"w":1036,"h":552},
	"rotated": false,
	"trimmed": false,
	"spriteSourceSize": {"x":0,"y":0,"w":1036,"h":552},
	"sourceSize": {"w":1036,"h":552}
}
,{
	"filename": "question0001",
	"frame": {"x":1036,"y":0,"w":1036,"h":552},
	"rotated": false,
	"trimmed": false,
	"spriteSourceSize": {"x":0,"y":0,"w":1036,"h":552},
	"sourceSize": {"w":1036,"h":552}
}
,{
	"filename": "question0002",
	"frame": {"x":2072,"y":0,"w":1036,"h":552},
	"rotated": false,
	"trimmed": false,
	"spriteSourceSize": {"x":0,"y":0,"w":1036,"h":552},
	"sourceSize": {"w":1036,"h":552}
}
,{
	"filename": "question0003",
	"frame": {"x":0,"y":552,"w":1036,"h":552},
	"rotated": false,
	"trimmed": false,
	"spriteSourceSize": {"x":0,"y":0,"w":1036,"h":552},
	"sourceSize": {"w":1036,"h":552}
}
,{
	"filename": "question0004",
	"frame": {"x":1036,"y":552,"w":1036,"h":552},
	"rotated": false,
	"trimmed": false,
	"spriteSourceSize": {"x":0,"y":0,"w":1036,"h":552},
	"sourceSize": {"w":1036,"h":552}
}
,{
	"filename": "question0005",
	"frame": {"x":2072,"y":552,"w":1036,"h":552},
	"rotated": false,
	"trimmed": false,
	"spriteSourceSize": {"x":0,"y":0,"w":1036,"h":552},
	"sourceSize": {"w":1036,"h":552}
}
,{
	"filename": "question0006",
	"frame": {"x":0,"y":1104,"w":1036,"h":552},
	"rotated": false,
	"trimmed": false,
	"spriteSourceSize": {"x":0,"y":0,"w":1036,"h":552},
	"sourceSize": {"w":1036,"h":552}
}
,{
	"filename": "question0007",
	"frame": {"x":1036,"y":1104,"w":1036,"h":552},
	"rotated": false,
	"trimmed": false,
	"spriteSourceSize": {"x":0,"y":0,"w":1036,"h":552},
	"sourceSize": {"w":1036,"h":552}
}
,{
	"filename": "question0008",
	"frame": {"x":2072,"y":1104,"w":1036,"h":552},
	"rotated": false,
	"trimmed": false,
	"spriteSourceSize": {"x":0,"y":0,"w":1036,"h":552},
	"sourceSize": {"w":1036,"h":552}
}
,{
	"filename": "question0009",
	"frame": {"x":0,"y":1656,"w":1036,"h":552},
	"rotated": false,
	"trimmed": false,
	"spriteSourceSize": {"x":0,"y":0,"w":1036,"h":552},
	"sourceSize": {"w":1036,"h":552}
}
,{
	"filename": "question0010",
	"frame": {"x":1036,"y":1656,"w":1036,"h":552},
	"rotated": false,
	"trimmed": false,
	"spriteSourceSize": {"x":0,"y":0,"w":1036,"h":552},
	"sourceSize": {"w":1036,"h":552}
}
,{
	"filename": "question0011",
	"frame": {"x":2072,"y":1656,"w":1036,"h":552},
	"rotated": false,
	"trimmed": false,
	"spriteSourceSize": {"x":0,"y":0,"w":1036,"h":552},
	"sourceSize": {"w":1036,"h":552}
}
,{
	"filename": "question0012",
	"frame": {"x":0,"y":2208,"w":1036,"h":552},
	"rotated": false,
	"trimmed": false,
	"spriteSourceSize": {"x":0,"y":0,"w":1036,"h":552},
	"sourceSize": {"w":1036,"h":552}
}
,{
	"filename": "question0013",
	"frame": {"x":1036,"y":2208,"w":1036,"h":552},
	"rotated": false,
	"trimmed": false,
	"spriteSourceSize": {"x":0,"y":0,"w":1036,"h":552},
	"sourceSize": {"w":1036,"h":552}
}
,{
	"filename": "question0014",
	"frame": {"x":2072,"y":2208,"w":1036,"h":552},
	"rotated": false,
	"trimmed": false,
	"spriteSourceSize": {"x":0,"y":0,"w":1036,"h":552},
	"sourceSize": {"w":1036,"h":552}
}
,{
	"filename": "question0015",
	"frame": {"x":0,"y":2760,"w":1036,"h":552},
	"rotated": false,
	"trimmed": false,
	"spriteSourceSize": {"x":0,"y":0,"w":1036,"h":552},
	"sourceSize": {"w":1036,"h":552}
}
,{
	"filename": "question0016",
	"frame": {"x":1036,"y":2760,"w":1036,"h":552},
	"rotated": false,
	"trimmed": false,
	"spriteSourceSize": {"x":0,"y":0,"w":1036,"h":552},
	"sourceSize": {"w":1036,"h":552}
}
,{
	"filename": "question0017",
	"frame": {"x":2072,"y":2760,"w":1036,"h":552},
	"rotated": false,
	"trimmed": false,
	"spriteSourceSize": {"x":0,"y":0,"w":1036,"h":552},
	"sourceSize": {"w":1036,"h":552}
}
,{
	"filename": "question0018",
	"frame": {"x":0,"y":3312,"w":1036,"h":552},
	"rotated": false,
	"trimmed": false,
	"spriteSourceSize": {"x":0,"y":0,"w":1036,"h":552},
	"sourceSize": {"w":1036,"h":552}
}
,{
	"filename": "question0019",
	"frame": {"x":1036,"y":3312,"w":1036,"h":552},
	"rotated": false,
	"trimmed": false,
	"spriteSourceSize": {"x":0,"y":0,"w":1036,"h":552},
	"sourceSize": {"w":1036,"h":552}
}],
"meta": {
	"app": "Adobe Animate",
	"version": "18.0.1.115",
	"image": "question1.png",
	"format": "RGBA8888",
	"size": {"w":4096,"h":4096},
	"scale": "1"
}
}
