﻿{"frames": [

{
	"filename": "Symbol 1 copy 2 instance 10000",
	"frame": {"x":0,"y":0,"w":334,"h":336},
	"rotated": false,
	"trimmed": false,
	"spriteSourceSize": {"x":0,"y":0,"w":334,"h":336},
	"sourceSize": {"w":334,"h":336}
}
,{
	"filename": "Symbol 1 copy 2 instance 10001",
	"frame": {"x":334,"y":0,"w":334,"h":336},
	"rotated": false,
	"trimmed": false,
	"spriteSourceSize": {"x":0,"y":0,"w":334,"h":336},
	"sourceSize": {"w":334,"h":336}
}
,{
	"filename": "Symbol 1 copy 2 instance 10002",
	"frame": {"x":668,"y":0,"w":334,"h":336},
	"rotated": false,
	"trimmed": false,
	"spriteSourceSize": {"x":0,"y":0,"w":334,"h":336},
	"sourceSize": {"w":334,"h":336}
}
,{
	"filename": "Symbol 1 copy 2 instance 10003",
	"frame": {"x":1002,"y":0,"w":334,"h":336},
	"rotated": false,
	"trimmed": false,
	"spriteSourceSize": {"x":0,"y":0,"w":334,"h":336},
	"sourceSize": {"w":334,"h":336}
}
,{
	"filename": "Symbol 1 copy 2 instance 10004",
	"frame": {"x":1336,"y":0,"w":334,"h":336},
	"rotated": false,
	"trimmed": false,
	"spriteSourceSize": {"x":0,"y":0,"w":334,"h":336},
	"sourceSize": {"w":334,"h":336}
}
,{
	"filename": "Symbol 1 copy 2 instance 10005",
	"frame": {"x":1670,"y":0,"w":334,"h":336},
	"rotated": false,
	"trimmed": false,
	"spriteSourceSize": {"x":0,"y":0,"w":334,"h":336},
	"sourceSize": {"w":334,"h":336}
}
,{
	"filename": "Symbol 1 copy 2 instance 10006",
	"frame": {"x":0,"y":336,"w":334,"h":336},
	"rotated": false,
	"trimmed": false,
	"spriteSourceSize": {"x":0,"y":0,"w":334,"h":336},
	"sourceSize": {"w":334,"h":336}
}
,{
	"filename": "Symbol 1 copy 2 instance 10007",
	"frame": {"x":334,"y":336,"w":334,"h":336},
	"rotated": false,
	"trimmed": false,
	"spriteSourceSize": {"x":0,"y":0,"w":334,"h":336},
	"sourceSize": {"w":334,"h":336}
}
,{
	"filename": "Symbol 1 copy 2 instance 10008",
	"frame": {"x":668,"y":336,"w":334,"h":336},
	"rotated": false,
	"trimmed": false,
	"spriteSourceSize": {"x":0,"y":0,"w":334,"h":336},
	"sourceSize": {"w":334,"h":336}
}
,{
	"filename": "Symbol 1 copy 2 instance 10009",
	"frame": {"x":1002,"y":336,"w":334,"h":336},
	"rotated": false,
	"trimmed": false,
	"spriteSourceSize": {"x":0,"y":0,"w":334,"h":336},
	"sourceSize": {"w":334,"h":336}
}
,{
	"filename": "Symbol 1 copy 2 instance 10010",
	"frame": {"x":1336,"y":336,"w":334,"h":336},
	"rotated": false,
	"trimmed": false,
	"spriteSourceSize": {"x":0,"y":0,"w":334,"h":336},
	"sourceSize": {"w":334,"h":336}
}
,{
	"filename": "Symbol 1 copy 2 instance 10011",
	"frame": {"x":1670,"y":336,"w":334,"h":336},
	"rotated": false,
	"trimmed": false,
	"spriteSourceSize": {"x":0,"y":0,"w":334,"h":336},
	"sourceSize": {"w":334,"h":336}
}
,{
	"filename": "Symbol 1 copy 2 instance 10012",
	"frame": {"x":0,"y":672,"w":334,"h":336},
	"rotated": false,
	"trimmed": false,
	"spriteSourceSize": {"x":0,"y":0,"w":334,"h":336},
	"sourceSize": {"w":334,"h":336}
}
,{
	"filename": "Symbol 1 copy 2 instance 10013",
	"frame": {"x":334,"y":672,"w":334,"h":336},
	"rotated": false,
	"trimmed": false,
	"spriteSourceSize": {"x":0,"y":0,"w":334,"h":336},
	"sourceSize": {"w":334,"h":336}
}
,{
	"filename": "Symbol 1 copy 2 instance 10014",
	"frame": {"x":668,"y":672,"w":334,"h":336},
	"rotated": false,
	"trimmed": false,
	"spriteSourceSize": {"x":0,"y":0,"w":334,"h":336},
	"sourceSize": {"w":334,"h":336}
}
,{
	"filename": "Symbol 1 copy 2 instance 10015",
	"frame": {"x":1002,"y":672,"w":334,"h":336},
	"rotated": false,
	"trimmed": false,
	"spriteSourceSize": {"x":0,"y":0,"w":334,"h":336},
	"sourceSize": {"w":334,"h":336}
}
,{
	"filename": "Symbol 1 copy 2 instance 10016",
	"frame": {"x":1336,"y":672,"w":334,"h":336},
	"rotated": false,
	"trimmed": false,
	"spriteSourceSize": {"x":0,"y":0,"w":334,"h":336},
	"sourceSize": {"w":334,"h":336}
}
,{
	"filename": "Symbol 1 copy 2 instance 10017",
	"frame": {"x":1670,"y":672,"w":334,"h":336},
	"rotated": false,
	"trimmed": false,
	"spriteSourceSize": {"x":0,"y":0,"w":334,"h":336},
	"sourceSize": {"w":334,"h":336}
}
,{
	"filename": "Symbol 1 copy 2 instance 10018",
	"frame": {"x":0,"y":1008,"w":334,"h":336},
	"rotated": false,
	"trimmed": false,
	"spriteSourceSize": {"x":0,"y":0,"w":334,"h":336},
	"sourceSize": {"w":334,"h":336}
}
,{
	"filename": "Symbol 1 copy 2 instance 10019",
	"frame": {"x":334,"y":1008,"w":334,"h":336},
	"rotated": false,
	"trimmed": false,
	"spriteSourceSize": {"x":0,"y":0,"w":334,"h":336},
	"sourceSize": {"w":334,"h":336}
}
,{
	"filename": "Symbol 1 copy 2 instance 10020",
	"frame": {"x":668,"y":1008,"w":334,"h":336},
	"rotated": false,
	"trimmed": false,
	"spriteSourceSize": {"x":0,"y":0,"w":334,"h":336},
	"sourceSize": {"w":334,"h":336}
}
,{
	"filename": "Symbol 1 copy 2 instance 10021",
	"frame": {"x":1002,"y":1008,"w":334,"h":336},
	"rotated": false,
	"trimmed": false,
	"spriteSourceSize": {"x":0,"y":0,"w":334,"h":336},
	"sourceSize": {"w":334,"h":336}
}
,{
	"filename": "Symbol 1 copy 2 instance 10022",
	"frame": {"x":1336,"y":1008,"w":334,"h":336},
	"rotated": false,
	"trimmed": false,
	"spriteSourceSize": {"x":0,"y":0,"w":334,"h":336},
	"sourceSize": {"w":334,"h":336}
}
,{
	"filename": "Symbol 1 copy 2 instance 10023",
	"frame": {"x":1670,"y":1008,"w":334,"h":336},
	"rotated": false,
	"trimmed": false,
	"spriteSourceSize": {"x":0,"y":0,"w":334,"h":336},
	"sourceSize": {"w":334,"h":336}
}
,{
	"filename": "Symbol 1 copy 2 instance 10024",
	"frame": {"x":0,"y":1344,"w":334,"h":336},
	"rotated": false,
	"trimmed": false,
	"spriteSourceSize": {"x":0,"y":0,"w":334,"h":336},
	"sourceSize": {"w":334,"h":336}
}
,{
	"filename": "Symbol 1 copy 2 instance 10025",
	"frame": {"x":334,"y":1344,"w":334,"h":336},
	"rotated": false,
	"trimmed": false,
	"spriteSourceSize": {"x":0,"y":0,"w":334,"h":336},
	"sourceSize": {"w":334,"h":336}
}
,{
	"filename": "Symbol 1 copy 2 instance 10026",
	"frame": {"x":668,"y":1344,"w":334,"h":336},
	"rotated": false,
	"trimmed": false,
	"spriteSourceSize": {"x":0,"y":0,"w":334,"h":336},
	"sourceSize": {"w":334,"h":336}
}
,{
	"filename": "Symbol 1 copy 2 instance 10027",
	"frame": {"x":1002,"y":1344,"w":334,"h":336},
	"rotated": false,
	"trimmed": false,
	"spriteSourceSize": {"x":0,"y":0,"w":334,"h":336},
	"sourceSize": {"w":334,"h":336}
}
,{
	"filename": "Symbol 1 copy 2 instance 10028",
	"frame": {"x":1336,"y":1344,"w":334,"h":336},
	"rotated": false,
	"trimmed": false,
	"spriteSourceSize": {"x":0,"y":0,"w":334,"h":336},
	"sourceSize": {"w":334,"h":336}
}
,{
	"filename": "Symbol 1 copy 2 instance 10029",
	"frame": {"x":1670,"y":1344,"w":334,"h":336},
	"rotated": false,
	"trimmed": false,
	"spriteSourceSize": {"x":0,"y":0,"w":334,"h":336},
	"sourceSize": {"w":334,"h":336}
}],
"meta": {
	"app": "Adobe Animate",
	"version": "18.0.1.115",
	"image": "qustionimages1.png",
	"format": "RGBA8888",
	"size": {"w":2048,"h":2048},
	"scale": "1"
}
}
