﻿{"frames": [

{
	"filename": "Option 1_mc  copy 3 instance 10000",
	"frame": {"x":0,"y":0,"w":315,"h":315},
	"rotated": false,
	"trimmed": false,
	"spriteSourceSize": {"x":0,"y":0,"w":315,"h":315},
	"sourceSize": {"w":315,"h":315}
}
,{
	"filename": "Option 1_mc  copy 3 instance 10001",
	"frame": {"x":315,"y":0,"w":315,"h":315},
	"rotated": false,
	"trimmed": false,
	"spriteSourceSize": {"x":0,"y":0,"w":315,"h":315},
	"sourceSize": {"w":315,"h":315}
}
,{
	"filename": "Option 1_mc  copy 3 instance 10002",
	"frame": {"x":630,"y":0,"w":315,"h":315},
	"rotated": false,
	"trimmed": false,
	"spriteSourceSize": {"x":0,"y":0,"w":315,"h":315},
	"sourceSize": {"w":315,"h":315}
}
,{
	"filename": "Option 1_mc  copy 3 instance 10003",
	"frame": {"x":945,"y":0,"w":315,"h":315},
	"rotated": false,
	"trimmed": false,
	"spriteSourceSize": {"x":0,"y":0,"w":315,"h":315},
	"sourceSize": {"w":315,"h":315}
}
,{
	"filename": "Option 1_mc  copy 3 instance 10004",
	"frame": {"x":1260,"y":0,"w":315,"h":315},
	"rotated": false,
	"trimmed": false,
	"spriteSourceSize": {"x":0,"y":0,"w":315,"h":315},
	"sourceSize": {"w":315,"h":315}
}
,{
	"filename": "Option 1_mc  copy 3 instance 10005",
	"frame": {"x":1575,"y":0,"w":315,"h":315},
	"rotated": false,
	"trimmed": false,
	"spriteSourceSize": {"x":0,"y":0,"w":315,"h":315},
	"sourceSize": {"w":315,"h":315}
}
,{
	"filename": "Option 1_mc  copy 3 instance 10006",
	"frame": {"x":0,"y":315,"w":315,"h":315},
	"rotated": false,
	"trimmed": false,
	"spriteSourceSize": {"x":0,"y":0,"w":315,"h":315},
	"sourceSize": {"w":315,"h":315}
}
,{
	"filename": "Option 1_mc  copy 3 instance 10007",
	"frame": {"x":315,"y":315,"w":315,"h":315},
	"rotated": false,
	"trimmed": false,
	"spriteSourceSize": {"x":0,"y":0,"w":315,"h":315},
	"sourceSize": {"w":315,"h":315}
}
,{
	"filename": "Option 1_mc  copy 3 instance 10008",
	"frame": {"x":630,"y":315,"w":315,"h":315},
	"rotated": false,
	"trimmed": false,
	"spriteSourceSize": {"x":0,"y":0,"w":315,"h":315},
	"sourceSize": {"w":315,"h":315}
}
,{
	"filename": "Option 1_mc  copy 3 instance 10009",
	"frame": {"x":945,"y":315,"w":315,"h":315},
	"rotated": false,
	"trimmed": false,
	"spriteSourceSize": {"x":0,"y":0,"w":315,"h":315},
	"sourceSize": {"w":315,"h":315}
}
,{
	"filename": "Option 1_mc  copy 3 instance 10010",
	"frame": {"x":1260,"y":315,"w":315,"h":315},
	"rotated": false,
	"trimmed": false,
	"spriteSourceSize": {"x":0,"y":0,"w":315,"h":315},
	"sourceSize": {"w":315,"h":315}
}
,{
	"filename": "Option 1_mc  copy 3 instance 10011",
	"frame": {"x":1575,"y":315,"w":315,"h":315},
	"rotated": false,
	"trimmed": false,
	"spriteSourceSize": {"x":0,"y":0,"w":315,"h":315},
	"sourceSize": {"w":315,"h":315}
}
,{
	"filename": "Option 1_mc  copy 3 instance 10012",
	"frame": {"x":0,"y":630,"w":315,"h":315},
	"rotated": false,
	"trimmed": false,
	"spriteSourceSize": {"x":0,"y":0,"w":315,"h":315},
	"sourceSize": {"w":315,"h":315}
}
,{
	"filename": "Option 1_mc  copy 3 instance 10013",
	"frame": {"x":315,"y":630,"w":315,"h":315},
	"rotated": false,
	"trimmed": false,
	"spriteSourceSize": {"x":0,"y":0,"w":315,"h":315},
	"sourceSize": {"w":315,"h":315}
}
,{
	"filename": "Option 1_mc  copy 3 instance 10014",
	"frame": {"x":630,"y":630,"w":315,"h":315},
	"rotated": false,
	"trimmed": false,
	"spriteSourceSize": {"x":0,"y":0,"w":315,"h":315},
	"sourceSize": {"w":315,"h":315}
}
,{
	"filename": "Option 1_mc  copy 3 instance 10015",
	"frame": {"x":945,"y":630,"w":315,"h":315},
	"rotated": false,
	"trimmed": false,
	"spriteSourceSize": {"x":0,"y":0,"w":315,"h":315},
	"sourceSize": {"w":315,"h":315}
}
,{
	"filename": "Option 1_mc  copy 3 instance 10016",
	"frame": {"x":1260,"y":630,"w":315,"h":315},
	"rotated": false,
	"trimmed": false,
	"spriteSourceSize": {"x":0,"y":0,"w":315,"h":315},
	"sourceSize": {"w":315,"h":315}
}
,{
	"filename": "Option 1_mc  copy 3 instance 10017",
	"frame": {"x":1575,"y":630,"w":315,"h":315},
	"rotated": false,
	"trimmed": false,
	"spriteSourceSize": {"x":0,"y":0,"w":315,"h":315},
	"sourceSize": {"w":315,"h":315}
}
,{
	"filename": "Option 1_mc  copy 3 instance 10018",
	"frame": {"x":0,"y":945,"w":315,"h":315},
	"rotated": false,
	"trimmed": false,
	"spriteSourceSize": {"x":0,"y":0,"w":315,"h":315},
	"sourceSize": {"w":315,"h":315}
}
,{
	"filename": "Option 1_mc  copy 3 instance 10019",
	"frame": {"x":315,"y":945,"w":315,"h":315},
	"rotated": false,
	"trimmed": false,
	"spriteSourceSize": {"x":0,"y":0,"w":315,"h":315},
	"sourceSize": {"w":315,"h":315}
}
,{
	"filename": "Option 1_mc  copy 3 instance 10020",
	"frame": {"x":630,"y":945,"w":315,"h":315},
	"rotated": false,
	"trimmed": false,
	"spriteSourceSize": {"x":0,"y":0,"w":315,"h":315},
	"sourceSize": {"w":315,"h":315}
}
,{
	"filename": "Option 1_mc  copy 3 instance 10021",
	"frame": {"x":945,"y":945,"w":315,"h":315},
	"rotated": false,
	"trimmed": false,
	"spriteSourceSize": {"x":0,"y":0,"w":315,"h":315},
	"sourceSize": {"w":315,"h":315}
}
,{
	"filename": "Option 1_mc  copy 3 instance 10022",
	"frame": {"x":1260,"y":945,"w":315,"h":315},
	"rotated": false,
	"trimmed": false,
	"spriteSourceSize": {"x":0,"y":0,"w":315,"h":315},
	"sourceSize": {"w":315,"h":315}
}
,{
	"filename": "Option 1_mc  copy 3 instance 10023",
	"frame": {"x":1575,"y":945,"w":315,"h":315},
	"rotated": false,
	"trimmed": false,
	"spriteSourceSize": {"x":0,"y":0,"w":315,"h":315},
	"sourceSize": {"w":315,"h":315}
}
,{
	"filename": "Option 1_mc  copy 3 instance 10024",
	"frame": {"x":0,"y":1260,"w":315,"h":315},
	"rotated": false,
	"trimmed": false,
	"spriteSourceSize": {"x":0,"y":0,"w":315,"h":315},
	"sourceSize": {"w":315,"h":315}
}
,{
	"filename": "Option 1_mc  copy 3 instance 10025",
	"frame": {"x":315,"y":1260,"w":315,"h":315},
	"rotated": false,
	"trimmed": false,
	"spriteSourceSize": {"x":0,"y":0,"w":315,"h":315},
	"sourceSize": {"w":315,"h":315}
}
,{
	"filename": "Option 1_mc  copy 3 instance 10026",
	"frame": {"x":630,"y":1260,"w":315,"h":315},
	"rotated": false,
	"trimmed": false,
	"spriteSourceSize": {"x":0,"y":0,"w":315,"h":315},
	"sourceSize": {"w":315,"h":315}
}
,{
	"filename": "Option 1_mc  copy 3 instance 10027",
	"frame": {"x":945,"y":1260,"w":315,"h":315},
	"rotated": false,
	"trimmed": false,
	"spriteSourceSize": {"x":0,"y":0,"w":315,"h":315},
	"sourceSize": {"w":315,"h":315}
}
,{
	"filename": "Option 1_mc  copy 3 instance 10028",
	"frame": {"x":1260,"y":1260,"w":315,"h":315},
	"rotated": false,
	"trimmed": false,
	"spriteSourceSize": {"x":0,"y":0,"w":315,"h":315},
	"sourceSize": {"w":315,"h":315}
}
,{
	"filename": "Option 1_mc  copy 3 instance 10029",
	"frame": {"x":1575,"y":1260,"w":315,"h":315},
	"rotated": false,
	"trimmed": false,
	"spriteSourceSize": {"x":0,"y":0,"w":315,"h":315},
	"sourceSize": {"w":315,"h":315}
}
,{
	"filename": "Option 1_mc  copy 3 instance 10030",
	"frame": {"x":0,"y":1575,"w":315,"h":315},
	"rotated": false,
	"trimmed": false,
	"spriteSourceSize": {"x":0,"y":0,"w":315,"h":315},
	"sourceSize": {"w":315,"h":315}
}
,{
	"filename": "Option 1_mc  copy 3 instance 10031",
	"frame": {"x":315,"y":1575,"w":315,"h":315},
	"rotated": false,
	"trimmed": false,
	"spriteSourceSize": {"x":0,"y":0,"w":315,"h":315},
	"sourceSize": {"w":315,"h":315}
}],
"meta": {
	"app": "Adobe Animate",
	"version": "18.0.1.115",
	"image": "ChoiceImages2.png",
	"format": "RGBA8888",
	"size": {"w":2048,"h":2048},
	"scale": "1"
}
}
