﻿{"frames": {

"question0000":
{
	"frame": {"x":0,"y":0,"w":218,"h":218},
	"rotated": false,
	"trimmed": false,
	"spriteSourceSize": {"x":0,"y":0,"w":218,"h":218},
	"sourceSize": {"w":218,"h":218}
},
"question0001":
{
	"frame": {"x":218,"y":0,"w":218,"h":218},
	"rotated": false,
	"trimmed": false,
	"spriteSourceSize": {"x":0,"y":0,"w":218,"h":218},
	"sourceSize": {"w":218,"h":218}
},
"question0002":
{
	"frame": {"x":436,"y":0,"w":218,"h":218},
	"rotated": false,
	"trimmed": false,
	"spriteSourceSize": {"x":0,"y":0,"w":218,"h":218},
	"sourceSize": {"w":218,"h":218}
},
"question0003":
{
	"frame": {"x":654,"y":0,"w":218,"h":218},
	"rotated": false,
	"trimmed": false,
	"spriteSourceSize": {"x":0,"y":0,"w":218,"h":218},
	"sourceSize": {"w":218,"h":218}
},
"question0004":
{
	"frame": {"x":0,"y":218,"w":218,"h":218},
	"rotated": false,
	"trimmed": false,
	"spriteSourceSize": {"x":0,"y":0,"w":218,"h":218},
	"sourceSize": {"w":218,"h":218}
},
"question0005":
{
	"frame": {"x":218,"y":218,"w":218,"h":218},
	"rotated": false,
	"trimmed": false,
	"spriteSourceSize": {"x":0,"y":0,"w":218,"h":218},
	"sourceSize": {"w":218,"h":218}
},
"question0006":
{
	"frame": {"x":436,"y":218,"w":218,"h":218},
	"rotated": false,
	"trimmed": false,
	"spriteSourceSize": {"x":0,"y":0,"w":218,"h":218},
	"sourceSize": {"w":218,"h":218}
},
"question0007":
{
	"frame": {"x":654,"y":218,"w":218,"h":218},
	"rotated": false,
	"trimmed": false,
	"spriteSourceSize": {"x":0,"y":0,"w":218,"h":218},
	"sourceSize": {"w":218,"h":218}
},
"question0008":
{
	"frame": {"x":0,"y":436,"w":218,"h":218},
	"rotated": false,
	"trimmed": false,
	"spriteSourceSize": {"x":0,"y":0,"w":218,"h":218},
	"sourceSize": {"w":218,"h":218}
},
"question0009":
{
	"frame": {"x":218,"y":436,"w":218,"h":218},
	"rotated": false,
	"trimmed": false,
	"spriteSourceSize": {"x":0,"y":0,"w":218,"h":218},
	"sourceSize": {"w":218,"h":218}
},
"question0010":
{
	"frame": {"x":436,"y":436,"w":218,"h":218},
	"rotated": false,
	"trimmed": false,
	"spriteSourceSize": {"x":0,"y":0,"w":218,"h":218},
	"sourceSize": {"w":218,"h":218}
},
"question0011":
{
	"frame": {"x":654,"y":436,"w":218,"h":218},
	"rotated": false,
	"trimmed": false,
	"spriteSourceSize": {"x":0,"y":0,"w":218,"h":218},
	"sourceSize": {"w":218,"h":218}
},
"question0012":
{
	"frame": {"x":0,"y":654,"w":218,"h":218},
	"rotated": false,
	"trimmed": false,
	"spriteSourceSize": {"x":0,"y":0,"w":218,"h":218},
	"sourceSize": {"w":218,"h":218}
},
"question0013":
{
	"frame": {"x":218,"y":654,"w":218,"h":218},
	"rotated": false,
	"trimmed": false,
	"spriteSourceSize": {"x":0,"y":0,"w":218,"h":218},
	"sourceSize": {"w":218,"h":218}
},
"question0014":
{
	"frame": {"x":436,"y":654,"w":218,"h":218},
	"rotated": false,
	"trimmed": false,
	"spriteSourceSize": {"x":0,"y":0,"w":218,"h":218},
	"sourceSize": {"w":218,"h":218}
}},
"meta": {
	"app": "Adobe Animate",
	"version": "18.0.0.107",
	"image": "question.png",
	"format": "RGBA8888",
	"size": {"w":1024,"h":1024},
	"scale": "1"
}
}
