﻿{"frames": [

{
	"filename": "question0000",
	"frame": {"x":0,"y":0,"w":175,"h":174},
	"rotated": false,
	"trimmed": false,
	"spriteSourceSize": {"x":0,"y":0,"w":175,"h":174},
	"sourceSize": {"w":175,"h":174}
}
,{
	"filename": "question0001",
	"frame": {"x":175,"y":0,"w":175,"h":174},
	"rotated": false,
	"trimmed": false,
	"spriteSourceSize": {"x":0,"y":0,"w":175,"h":174},
	"sourceSize": {"w":175,"h":174}
}
,{
	"filename": "question0002",
	"frame": {"x":350,"y":0,"w":175,"h":174},
	"rotated": false,
	"trimmed": false,
	"spriteSourceSize": {"x":0,"y":0,"w":175,"h":174},
	"sourceSize": {"w":175,"h":174}
}
,{
	"filename": "question0003",
	"frame": {"x":525,"y":0,"w":175,"h":174},
	"rotated": false,
	"trimmed": false,
	"spriteSourceSize": {"x":0,"y":0,"w":175,"h":174},
	"sourceSize": {"w":175,"h":174}
}
,{
	"filename": "question0004",
	"frame": {"x":700,"y":0,"w":175,"h":174},
	"rotated": false,
	"trimmed": false,
	"spriteSourceSize": {"x":0,"y":0,"w":175,"h":174},
	"sourceSize": {"w":175,"h":174}
}
,{
	"filename": "question0005",
	"frame": {"x":0,"y":174,"w":175,"h":174},
	"rotated": false,
	"trimmed": false,
	"spriteSourceSize": {"x":0,"y":0,"w":175,"h":174},
	"sourceSize": {"w":175,"h":174}
}
,{
	"filename": "question0006",
	"frame": {"x":175,"y":174,"w":175,"h":174},
	"rotated": false,
	"trimmed": false,
	"spriteSourceSize": {"x":0,"y":0,"w":175,"h":174},
	"sourceSize": {"w":175,"h":174}
}
,{
	"filename": "question0007",
	"frame": {"x":350,"y":174,"w":175,"h":174},
	"rotated": false,
	"trimmed": false,
	"spriteSourceSize": {"x":0,"y":0,"w":175,"h":174},
	"sourceSize": {"w":175,"h":174}
}
,{
	"filename": "question0008",
	"frame": {"x":525,"y":174,"w":175,"h":174},
	"rotated": false,
	"trimmed": false,
	"spriteSourceSize": {"x":0,"y":0,"w":175,"h":174},
	"sourceSize": {"w":175,"h":174}
}
,{
	"filename": "question0009",
	"frame": {"x":700,"y":174,"w":175,"h":174},
	"rotated": false,
	"trimmed": false,
	"spriteSourceSize": {"x":0,"y":0,"w":175,"h":174},
	"sourceSize": {"w":175,"h":174}
}
,{
	"filename": "question0010",
	"frame": {"x":0,"y":348,"w":175,"h":174},
	"rotated": false,
	"trimmed": false,
	"spriteSourceSize": {"x":0,"y":0,"w":175,"h":174},
	"sourceSize": {"w":175,"h":174}
}
,{
	"filename": "question0011",
	"frame": {"x":175,"y":348,"w":175,"h":174},
	"rotated": false,
	"trimmed": false,
	"spriteSourceSize": {"x":0,"y":0,"w":175,"h":174},
	"sourceSize": {"w":175,"h":174}
}
,{
	"filename": "question0012",
	"frame": {"x":350,"y":348,"w":175,"h":174},
	"rotated": false,
	"trimmed": false,
	"spriteSourceSize": {"x":0,"y":0,"w":175,"h":174},
	"sourceSize": {"w":175,"h":174}
}
,{
	"filename": "question0013",
	"frame": {"x":525,"y":348,"w":175,"h":174},
	"rotated": false,
	"trimmed": false,
	"spriteSourceSize": {"x":0,"y":0,"w":175,"h":174},
	"sourceSize": {"w":175,"h":174}
}
,{
	"filename": "question0014",
	"frame": {"x":700,"y":348,"w":175,"h":174},
	"rotated": false,
	"trimmed": false,
	"spriteSourceSize": {"x":0,"y":0,"w":175,"h":174},
	"sourceSize": {"w":175,"h":174}
}],
"meta": {
	"app": "Adobe Animate",
	"version": "18.0.1.115",
	"image": "ChoiceImages2.png",
	"format": "RGBA8888",
	"size": {"w":1024,"h":1024},
	"scale": "1"
}
}
