﻿{"frames": [

{
	"filename": "ch10000",
	"frame": {"x":0,"y":0,"w":302,"h":205},
	"rotated": false,
	"trimmed": false,
	"spriteSourceSize": {"x":0,"y":0,"w":302,"h":205},
	"sourceSize": {"w":302,"h":205}
}
,{
	"filename": "ch10001",
	"frame": {"x":302,"y":0,"w":302,"h":205},
	"rotated": false,
	"trimmed": false,
	"spriteSourceSize": {"x":0,"y":0,"w":302,"h":205},
	"sourceSize": {"w":302,"h":205}
}
,{
	"filename": "ch10002",
	"frame": {"x":604,"y":0,"w":302,"h":205},
	"rotated": false,
	"trimmed": false,
	"spriteSourceSize": {"x":0,"y":0,"w":302,"h":205},
	"sourceSize": {"w":302,"h":205}
}
,{
	"filename": "ch10003",
	"frame": {"x":906,"y":0,"w":302,"h":205},
	"rotated": false,
	"trimmed": false,
	"spriteSourceSize": {"x":0,"y":0,"w":302,"h":205},
	"sourceSize": {"w":302,"h":205}
}
,{
	"filename": "ch10004",
	"frame": {"x":1208,"y":0,"w":302,"h":205},
	"rotated": false,
	"trimmed": false,
	"spriteSourceSize": {"x":0,"y":0,"w":302,"h":205},
	"sourceSize": {"w":302,"h":205}
}
,{
	"filename": "ch10005",
	"frame": {"x":1510,"y":0,"w":302,"h":205},
	"rotated": false,
	"trimmed": false,
	"spriteSourceSize": {"x":0,"y":0,"w":302,"h":205},
	"sourceSize": {"w":302,"h":205}
}
,{
	"filename": "ch10006",
	"frame": {"x":0,"y":205,"w":302,"h":205},
	"rotated": false,
	"trimmed": false,
	"spriteSourceSize": {"x":0,"y":0,"w":302,"h":205},
	"sourceSize": {"w":302,"h":205}
}
,{
	"filename": "ch10007",
	"frame": {"x":302,"y":205,"w":302,"h":205},
	"rotated": false,
	"trimmed": false,
	"spriteSourceSize": {"x":0,"y":0,"w":302,"h":205},
	"sourceSize": {"w":302,"h":205}
}
,{
	"filename": "ch10008",
	"frame": {"x":604,"y":205,"w":302,"h":205},
	"rotated": false,
	"trimmed": false,
	"spriteSourceSize": {"x":0,"y":0,"w":302,"h":205},
	"sourceSize": {"w":302,"h":205}
}
,{
	"filename": "ch10009",
	"frame": {"x":906,"y":205,"w":302,"h":205},
	"rotated": false,
	"trimmed": false,
	"spriteSourceSize": {"x":0,"y":0,"w":302,"h":205},
	"sourceSize": {"w":302,"h":205}
}
,{
	"filename": "ch10010",
	"frame": {"x":1208,"y":205,"w":302,"h":205},
	"rotated": false,
	"trimmed": false,
	"spriteSourceSize": {"x":0,"y":0,"w":302,"h":205},
	"sourceSize": {"w":302,"h":205}
}
,{
	"filename": "ch10011",
	"frame": {"x":1510,"y":205,"w":302,"h":205},
	"rotated": false,
	"trimmed": false,
	"spriteSourceSize": {"x":0,"y":0,"w":302,"h":205},
	"sourceSize": {"w":302,"h":205}
}
,{
	"filename": "ch10012",
	"frame": {"x":0,"y":410,"w":302,"h":205},
	"rotated": false,
	"trimmed": false,
	"spriteSourceSize": {"x":0,"y":0,"w":302,"h":205},
	"sourceSize": {"w":302,"h":205}
}
,{
	"filename": "ch10013",
	"frame": {"x":302,"y":410,"w":302,"h":205},
	"rotated": false,
	"trimmed": false,
	"spriteSourceSize": {"x":0,"y":0,"w":302,"h":205},
	"sourceSize": {"w":302,"h":205}
}
,{
	"filename": "ch10014",
	"frame": {"x":604,"y":410,"w":302,"h":205},
	"rotated": false,
	"trimmed": false,
	"spriteSourceSize": {"x":0,"y":0,"w":302,"h":205},
	"sourceSize": {"w":302,"h":205}
}
,{
	"filename": "ch10015",
	"frame": {"x":906,"y":410,"w":302,"h":205},
	"rotated": false,
	"trimmed": false,
	"spriteSourceSize": {"x":0,"y":0,"w":302,"h":205},
	"sourceSize": {"w":302,"h":205}
}
,{
	"filename": "ch10016",
	"frame": {"x":1208,"y":410,"w":302,"h":205},
	"rotated": false,
	"trimmed": false,
	"spriteSourceSize": {"x":0,"y":0,"w":302,"h":205},
	"sourceSize": {"w":302,"h":205}
}
,{
	"filename": "ch10017",
	"frame": {"x":1510,"y":410,"w":302,"h":205},
	"rotated": false,
	"trimmed": false,
	"spriteSourceSize": {"x":0,"y":0,"w":302,"h":205},
	"sourceSize": {"w":302,"h":205}
}
,{
	"filename": "ch10018",
	"frame": {"x":0,"y":615,"w":302,"h":205},
	"rotated": false,
	"trimmed": false,
	"spriteSourceSize": {"x":0,"y":0,"w":302,"h":205},
	"sourceSize": {"w":302,"h":205}
}
,{
	"filename": "ch10019",
	"frame": {"x":302,"y":615,"w":302,"h":205},
	"rotated": false,
	"trimmed": false,
	"spriteSourceSize": {"x":0,"y":0,"w":302,"h":205},
	"sourceSize": {"w":302,"h":205}
}
,{
	"filename": "ch10020",
	"frame": {"x":604,"y":615,"w":302,"h":205},
	"rotated": false,
	"trimmed": false,
	"spriteSourceSize": {"x":0,"y":0,"w":302,"h":205},
	"sourceSize": {"w":302,"h":205}
}
,{
	"filename": "ch10021",
	"frame": {"x":906,"y":615,"w":302,"h":205},
	"rotated": false,
	"trimmed": false,
	"spriteSourceSize": {"x":0,"y":0,"w":302,"h":205},
	"sourceSize": {"w":302,"h":205}
}
,{
	"filename": "ch10022",
	"frame": {"x":1208,"y":615,"w":302,"h":205},
	"rotated": false,
	"trimmed": false,
	"spriteSourceSize": {"x":0,"y":0,"w":302,"h":205},
	"sourceSize": {"w":302,"h":205}
}
,{
	"filename": "ch10023",
	"frame": {"x":1510,"y":615,"w":302,"h":205},
	"rotated": false,
	"trimmed": false,
	"spriteSourceSize": {"x":0,"y":0,"w":302,"h":205},
	"sourceSize": {"w":302,"h":205}
}
,{
	"filename": "ch10024",
	"frame": {"x":0,"y":820,"w":302,"h":205},
	"rotated": false,
	"trimmed": false,
	"spriteSourceSize": {"x":0,"y":0,"w":302,"h":205},
	"sourceSize": {"w":302,"h":205}
}
,{
	"filename": "ch10025",
	"frame": {"x":302,"y":820,"w":302,"h":205},
	"rotated": false,
	"trimmed": false,
	"spriteSourceSize": {"x":0,"y":0,"w":302,"h":205},
	"sourceSize": {"w":302,"h":205}
}
,{
	"filename": "ch10026",
	"frame": {"x":604,"y":820,"w":302,"h":205},
	"rotated": false,
	"trimmed": false,
	"spriteSourceSize": {"x":0,"y":0,"w":302,"h":205},
	"sourceSize": {"w":302,"h":205}
}
,{
	"filename": "ch10027",
	"frame": {"x":906,"y":820,"w":302,"h":205},
	"rotated": false,
	"trimmed": false,
	"spriteSourceSize": {"x":0,"y":0,"w":302,"h":205},
	"sourceSize": {"w":302,"h":205}
}
,{
	"filename": "ch10028",
	"frame": {"x":1208,"y":820,"w":302,"h":205},
	"rotated": false,
	"trimmed": false,
	"spriteSourceSize": {"x":0,"y":0,"w":302,"h":205},
	"sourceSize": {"w":302,"h":205}
}
,{
	"filename": "ch10029",
	"frame": {"x":1510,"y":820,"w":302,"h":205},
	"rotated": false,
	"trimmed": false,
	"spriteSourceSize": {"x":0,"y":0,"w":302,"h":205},
	"sourceSize": {"w":302,"h":205}
}
,{
	"filename": "ch10030",
	"frame": {"x":0,"y":1025,"w":302,"h":205},
	"rotated": false,
	"trimmed": false,
	"spriteSourceSize": {"x":0,"y":0,"w":302,"h":205},
	"sourceSize": {"w":302,"h":205}
}
,{
	"filename": "ch10031",
	"frame": {"x":302,"y":1025,"w":302,"h":205},
	"rotated": false,
	"trimmed": false,
	"spriteSourceSize": {"x":0,"y":0,"w":302,"h":205},
	"sourceSize": {"w":302,"h":205}
}
,{
	"filename": "ch10032",
	"frame": {"x":604,"y":1025,"w":302,"h":205},
	"rotated": false,
	"trimmed": false,
	"spriteSourceSize": {"x":0,"y":0,"w":302,"h":205},
	"sourceSize": {"w":302,"h":205}
}
,{
	"filename": "ch10033",
	"frame": {"x":906,"y":1025,"w":302,"h":205},
	"rotated": false,
	"trimmed": false,
	"spriteSourceSize": {"x":0,"y":0,"w":302,"h":205},
	"sourceSize": {"w":302,"h":205}
}
,{
	"filename": "ch10034",
	"frame": {"x":1208,"y":1025,"w":302,"h":205},
	"rotated": false,
	"trimmed": false,
	"spriteSourceSize": {"x":0,"y":0,"w":302,"h":205},
	"sourceSize": {"w":302,"h":205}
}
,{
	"filename": "ch10035",
	"frame": {"x":1510,"y":1025,"w":302,"h":205},
	"rotated": false,
	"trimmed": false,
	"spriteSourceSize": {"x":0,"y":0,"w":302,"h":205},
	"sourceSize": {"w":302,"h":205}
}
,{
	"filename": "ch10036",
	"frame": {"x":0,"y":1230,"w":302,"h":205},
	"rotated": false,
	"trimmed": false,
	"spriteSourceSize": {"x":0,"y":0,"w":302,"h":205},
	"sourceSize": {"w":302,"h":205}
}
,{
	"filename": "ch10037",
	"frame": {"x":302,"y":1230,"w":302,"h":205},
	"rotated": false,
	"trimmed": false,
	"spriteSourceSize": {"x":0,"y":0,"w":302,"h":205},
	"sourceSize": {"w":302,"h":205}
}
,{
	"filename": "ch10038",
	"frame": {"x":604,"y":1230,"w":302,"h":205},
	"rotated": false,
	"trimmed": false,
	"spriteSourceSize": {"x":0,"y":0,"w":302,"h":205},
	"sourceSize": {"w":302,"h":205}
}
,{
	"filename": "ch10039",
	"frame": {"x":906,"y":1230,"w":302,"h":205},
	"rotated": false,
	"trimmed": false,
	"spriteSourceSize": {"x":0,"y":0,"w":302,"h":205},
	"sourceSize": {"w":302,"h":205}
}
,{
	"filename": "ch10040",
	"frame": {"x":1208,"y":1230,"w":302,"h":205},
	"rotated": false,
	"trimmed": false,
	"spriteSourceSize": {"x":0,"y":0,"w":302,"h":205},
	"sourceSize": {"w":302,"h":205}
}
,{
	"filename": "ch10041",
	"frame": {"x":1510,"y":1230,"w":302,"h":205},
	"rotated": false,
	"trimmed": false,
	"spriteSourceSize": {"x":0,"y":0,"w":302,"h":205},
	"sourceSize": {"w":302,"h":205}
}
,{
	"filename": "ch10042",
	"frame": {"x":0,"y":1435,"w":302,"h":205},
	"rotated": false,
	"trimmed": false,
	"spriteSourceSize": {"x":0,"y":0,"w":302,"h":205},
	"sourceSize": {"w":302,"h":205}
}
,{
	"filename": "ch10043",
	"frame": {"x":302,"y":1435,"w":302,"h":205},
	"rotated": false,
	"trimmed": false,
	"spriteSourceSize": {"x":0,"y":0,"w":302,"h":205},
	"sourceSize": {"w":302,"h":205}
}
,{
	"filename": "ch10044",
	"frame": {"x":604,"y":1435,"w":302,"h":205},
	"rotated": false,
	"trimmed": false,
	"spriteSourceSize": {"x":0,"y":0,"w":302,"h":205},
	"sourceSize": {"w":302,"h":205}
}
,{
	"filename": "ch10045",
	"frame": {"x":906,"y":1435,"w":302,"h":205},
	"rotated": false,
	"trimmed": false,
	"spriteSourceSize": {"x":0,"y":0,"w":302,"h":205},
	"sourceSize": {"w":302,"h":205}
}
,{
	"filename": "ch10046",
	"frame": {"x":1208,"y":1435,"w":302,"h":205},
	"rotated": false,
	"trimmed": false,
	"spriteSourceSize": {"x":0,"y":0,"w":302,"h":205},
	"sourceSize": {"w":302,"h":205}
}
,{
	"filename": "ch10047",
	"frame": {"x":1510,"y":1435,"w":302,"h":205},
	"rotated": false,
	"trimmed": false,
	"spriteSourceSize": {"x":0,"y":0,"w":302,"h":205},
	"sourceSize": {"w":302,"h":205}
}
,{
	"filename": "ch10048",
	"frame": {"x":0,"y":1640,"w":302,"h":205},
	"rotated": false,
	"trimmed": false,
	"spriteSourceSize": {"x":0,"y":0,"w":302,"h":205},
	"sourceSize": {"w":302,"h":205}
}
,{
	"filename": "ch10049",
	"frame": {"x":302,"y":1640,"w":302,"h":205},
	"rotated": false,
	"trimmed": false,
	"spriteSourceSize": {"x":0,"y":0,"w":302,"h":205},
	"sourceSize": {"w":302,"h":205}
}
,{
	"filename": "ch10050",
	"frame": {"x":604,"y":1640,"w":302,"h":205},
	"rotated": false,
	"trimmed": false,
	"spriteSourceSize": {"x":0,"y":0,"w":302,"h":205},
	"sourceSize": {"w":302,"h":205}
}
,{
	"filename": "ch10051",
	"frame": {"x":906,"y":1640,"w":302,"h":205},
	"rotated": false,
	"trimmed": false,
	"spriteSourceSize": {"x":0,"y":0,"w":302,"h":205},
	"sourceSize": {"w":302,"h":205}
}
,{
	"filename": "ch10052",
	"frame": {"x":1208,"y":1640,"w":302,"h":205},
	"rotated": false,
	"trimmed": false,
	"spriteSourceSize": {"x":0,"y":0,"w":302,"h":205},
	"sourceSize": {"w":302,"h":205}
}
,{
	"filename": "ch10053",
	"frame": {"x":1510,"y":1640,"w":302,"h":205},
	"rotated": false,
	"trimmed": false,
	"spriteSourceSize": {"x":0,"y":0,"w":302,"h":205},
	"sourceSize": {"w":302,"h":205}
}
,{
	"filename": "ch10054",
	"frame": {"x":0,"y":1845,"w":302,"h":205},
	"rotated": false,
	"trimmed": false,
	"spriteSourceSize": {"x":0,"y":0,"w":302,"h":205},
	"sourceSize": {"w":302,"h":205}
}
,{
	"filename": "ch10055",
	"frame": {"x":302,"y":1845,"w":302,"h":205},
	"rotated": false,
	"trimmed": false,
	"spriteSourceSize": {"x":0,"y":0,"w":302,"h":205},
	"sourceSize": {"w":302,"h":205}
}
,{
	"filename": "ch10056",
	"frame": {"x":604,"y":1845,"w":302,"h":205},
	"rotated": false,
	"trimmed": false,
	"spriteSourceSize": {"x":0,"y":0,"w":302,"h":205},
	"sourceSize": {"w":302,"h":205}
}
,{
	"filename": "ch10057",
	"frame": {"x":906,"y":1845,"w":302,"h":205},
	"rotated": false,
	"trimmed": false,
	"spriteSourceSize": {"x":0,"y":0,"w":302,"h":205},
	"sourceSize": {"w":302,"h":205}
}
,{
	"filename": "ch10058",
	"frame": {"x":1208,"y":1845,"w":302,"h":205},
	"rotated": false,
	"trimmed": false,
	"spriteSourceSize": {"x":0,"y":0,"w":302,"h":205},
	"sourceSize": {"w":302,"h":205}
}
,{
	"filename": "ch10059",
	"frame": {"x":1510,"y":1845,"w":302,"h":205},
	"rotated": false,
	"trimmed": false,
	"spriteSourceSize": {"x":0,"y":0,"w":302,"h":205},
	"sourceSize": {"w":302,"h":205}
}
,{
	"filename": "ch10060",
	"frame": {"x":0,"y":2050,"w":302,"h":205},
	"rotated": false,
	"trimmed": false,
	"spriteSourceSize": {"x":0,"y":0,"w":302,"h":205},
	"sourceSize": {"w":302,"h":205}
}
,{
	"filename": "ch10061",
	"frame": {"x":302,"y":2050,"w":302,"h":205},
	"rotated": false,
	"trimmed": false,
	"spriteSourceSize": {"x":0,"y":0,"w":302,"h":205},
	"sourceSize": {"w":302,"h":205}
}
,{
	"filename": "ch10062",
	"frame": {"x":604,"y":2050,"w":302,"h":205},
	"rotated": false,
	"trimmed": false,
	"spriteSourceSize": {"x":0,"y":0,"w":302,"h":205},
	"sourceSize": {"w":302,"h":205}
}
,{
	"filename": "ch10063",
	"frame": {"x":906,"y":2050,"w":302,"h":205},
	"rotated": false,
	"trimmed": false,
	"spriteSourceSize": {"x":0,"y":0,"w":302,"h":205},
	"sourceSize": {"w":302,"h":205}
}
,{
	"filename": "ch10064",
	"frame": {"x":1208,"y":2050,"w":302,"h":205},
	"rotated": false,
	"trimmed": false,
	"spriteSourceSize": {"x":0,"y":0,"w":302,"h":205},
	"sourceSize": {"w":302,"h":205}
}
,{
	"filename": "ch10065",
	"frame": {"x":1510,"y":2050,"w":302,"h":205},
	"rotated": false,
	"trimmed": false,
	"spriteSourceSize": {"x":0,"y":0,"w":302,"h":205},
	"sourceSize": {"w":302,"h":205}
}
,{
	"filename": "ch10066",
	"frame": {"x":0,"y":2255,"w":302,"h":205},
	"rotated": false,
	"trimmed": false,
	"spriteSourceSize": {"x":0,"y":0,"w":302,"h":205},
	"sourceSize": {"w":302,"h":205}
}
,{
	"filename": "ch10067",
	"frame": {"x":302,"y":2255,"w":302,"h":205},
	"rotated": false,
	"trimmed": false,
	"spriteSourceSize": {"x":0,"y":0,"w":302,"h":205},
	"sourceSize": {"w":302,"h":205}
}
,{
	"filename": "ch10068",
	"frame": {"x":604,"y":2255,"w":302,"h":205},
	"rotated": false,
	"trimmed": false,
	"spriteSourceSize": {"x":0,"y":0,"w":302,"h":205},
	"sourceSize": {"w":302,"h":205}
}
,{
	"filename": "ch10069",
	"frame": {"x":906,"y":2255,"w":302,"h":205},
	"rotated": false,
	"trimmed": false,
	"spriteSourceSize": {"x":0,"y":0,"w":302,"h":205},
	"sourceSize": {"w":302,"h":205}
}
,{
	"filename": "ch10070",
	"frame": {"x":1208,"y":2255,"w":302,"h":205},
	"rotated": false,
	"trimmed": false,
	"spriteSourceSize": {"x":0,"y":0,"w":302,"h":205},
	"sourceSize": {"w":302,"h":205}
}
,{
	"filename": "ch10071",
	"frame": {"x":1510,"y":2255,"w":302,"h":205},
	"rotated": false,
	"trimmed": false,
	"spriteSourceSize": {"x":0,"y":0,"w":302,"h":205},
	"sourceSize": {"w":302,"h":205}
}
,{
	"filename": "ch10072",
	"frame": {"x":0,"y":2460,"w":302,"h":205},
	"rotated": false,
	"trimmed": false,
	"spriteSourceSize": {"x":0,"y":0,"w":302,"h":205},
	"sourceSize": {"w":302,"h":205}
}
,{
	"filename": "ch10073",
	"frame": {"x":302,"y":2460,"w":302,"h":205},
	"rotated": false,
	"trimmed": false,
	"spriteSourceSize": {"x":0,"y":0,"w":302,"h":205},
	"sourceSize": {"w":302,"h":205}
}
,{
	"filename": "ch10074",
	"frame": {"x":604,"y":2460,"w":302,"h":205},
	"rotated": false,
	"trimmed": false,
	"spriteSourceSize": {"x":0,"y":0,"w":302,"h":205},
	"sourceSize": {"w":302,"h":205}
}
,{
	"filename": "ch10075",
	"frame": {"x":906,"y":2460,"w":302,"h":205},
	"rotated": false,
	"trimmed": false,
	"spriteSourceSize": {"x":0,"y":0,"w":302,"h":205},
	"sourceSize": {"w":302,"h":205}
}
,{
	"filename": "ch10076",
	"frame": {"x":1208,"y":2460,"w":302,"h":205},
	"rotated": false,
	"trimmed": false,
	"spriteSourceSize": {"x":0,"y":0,"w":302,"h":205},
	"sourceSize": {"w":302,"h":205}
}
,{
	"filename": "ch10077",
	"frame": {"x":1510,"y":2460,"w":302,"h":205},
	"rotated": false,
	"trimmed": false,
	"spriteSourceSize": {"x":0,"y":0,"w":302,"h":205},
	"sourceSize": {"w":302,"h":205}
}
,{
	"filename": "ch10078",
	"frame": {"x":0,"y":2665,"w":302,"h":205},
	"rotated": false,
	"trimmed": false,
	"spriteSourceSize": {"x":0,"y":0,"w":302,"h":205},
	"sourceSize": {"w":302,"h":205}
}
,{
	"filename": "ch10079",
	"frame": {"x":302,"y":2665,"w":302,"h":205},
	"rotated": false,
	"trimmed": false,
	"spriteSourceSize": {"x":0,"y":0,"w":302,"h":205},
	"sourceSize": {"w":302,"h":205}
}
,{
	"filename": "ch10080",
	"frame": {"x":604,"y":2665,"w":302,"h":205},
	"rotated": false,
	"trimmed": false,
	"spriteSourceSize": {"x":0,"y":0,"w":302,"h":205},
	"sourceSize": {"w":302,"h":205}
}
,{
	"filename": "ch10081",
	"frame": {"x":906,"y":2665,"w":302,"h":205},
	"rotated": false,
	"trimmed": false,
	"spriteSourceSize": {"x":0,"y":0,"w":302,"h":205},
	"sourceSize": {"w":302,"h":205}
}
,{
	"filename": "ch10082",
	"frame": {"x":1208,"y":2665,"w":302,"h":205},
	"rotated": false,
	"trimmed": false,
	"spriteSourceSize": {"x":0,"y":0,"w":302,"h":205},
	"sourceSize": {"w":302,"h":205}
}
,{
	"filename": "ch10083",
	"frame": {"x":1510,"y":2665,"w":302,"h":205},
	"rotated": false,
	"trimmed": false,
	"spriteSourceSize": {"x":0,"y":0,"w":302,"h":205},
	"sourceSize": {"w":302,"h":205}
}
,{
	"filename": "ch10084",
	"frame": {"x":0,"y":2870,"w":302,"h":205},
	"rotated": false,
	"trimmed": false,
	"spriteSourceSize": {"x":0,"y":0,"w":302,"h":205},
	"sourceSize": {"w":302,"h":205}
}
,{
	"filename": "ch10085",
	"frame": {"x":302,"y":2870,"w":302,"h":205},
	"rotated": false,
	"trimmed": false,
	"spriteSourceSize": {"x":0,"y":0,"w":302,"h":205},
	"sourceSize": {"w":302,"h":205}
}
,{
	"filename": "ch10086",
	"frame": {"x":604,"y":2870,"w":302,"h":205},
	"rotated": false,
	"trimmed": false,
	"spriteSourceSize": {"x":0,"y":0,"w":302,"h":205},
	"sourceSize": {"w":302,"h":205}
}
,{
	"filename": "ch10087",
	"frame": {"x":906,"y":2870,"w":302,"h":205},
	"rotated": false,
	"trimmed": false,
	"spriteSourceSize": {"x":0,"y":0,"w":302,"h":205},
	"sourceSize": {"w":302,"h":205}
}
,{
	"filename": "ch10088",
	"frame": {"x":1208,"y":2870,"w":302,"h":205},
	"rotated": false,
	"trimmed": false,
	"spriteSourceSize": {"x":0,"y":0,"w":302,"h":205},
	"sourceSize": {"w":302,"h":205}
}
,{
	"filename": "ch10089",
	"frame": {"x":1510,"y":2870,"w":302,"h":205},
	"rotated": false,
	"trimmed": false,
	"spriteSourceSize": {"x":0,"y":0,"w":302,"h":205},
	"sourceSize": {"w":302,"h":205}
}
,{
	"filename": "ch10090",
	"frame": {"x":0,"y":3075,"w":302,"h":205},
	"rotated": false,
	"trimmed": false,
	"spriteSourceSize": {"x":0,"y":0,"w":302,"h":205},
	"sourceSize": {"w":302,"h":205}
}
,{
	"filename": "ch10091",
	"frame": {"x":302,"y":3075,"w":302,"h":205},
	"rotated": false,
	"trimmed": false,
	"spriteSourceSize": {"x":0,"y":0,"w":302,"h":205},
	"sourceSize": {"w":302,"h":205}
}
,{
	"filename": "ch10092",
	"frame": {"x":604,"y":3075,"w":302,"h":205},
	"rotated": false,
	"trimmed": false,
	"spriteSourceSize": {"x":0,"y":0,"w":302,"h":205},
	"sourceSize": {"w":302,"h":205}
}
,{
	"filename": "ch10093",
	"frame": {"x":906,"y":3075,"w":302,"h":205},
	"rotated": false,
	"trimmed": false,
	"spriteSourceSize": {"x":0,"y":0,"w":302,"h":205},
	"sourceSize": {"w":302,"h":205}
}
,{
	"filename": "ch10094",
	"frame": {"x":1208,"y":3075,"w":302,"h":205},
	"rotated": false,
	"trimmed": false,
	"spriteSourceSize": {"x":0,"y":0,"w":302,"h":205},
	"sourceSize": {"w":302,"h":205}
}
,{
	"filename": "ch10095",
	"frame": {"x":1510,"y":3075,"w":302,"h":205},
	"rotated": false,
	"trimmed": false,
	"spriteSourceSize": {"x":0,"y":0,"w":302,"h":205},
	"sourceSize": {"w":302,"h":205}
}
,{
	"filename": "ch10096",
	"frame": {"x":0,"y":3280,"w":302,"h":205},
	"rotated": false,
	"trimmed": false,
	"spriteSourceSize": {"x":0,"y":0,"w":302,"h":205},
	"sourceSize": {"w":302,"h":205}
}
,{
	"filename": "ch10097",
	"frame": {"x":302,"y":3280,"w":302,"h":205},
	"rotated": false,
	"trimmed": false,
	"spriteSourceSize": {"x":0,"y":0,"w":302,"h":205},
	"sourceSize": {"w":302,"h":205}
}
,{
	"filename": "ch10098",
	"frame": {"x":604,"y":3280,"w":302,"h":205},
	"rotated": false,
	"trimmed": false,
	"spriteSourceSize": {"x":0,"y":0,"w":302,"h":205},
	"sourceSize": {"w":302,"h":205}
}
,{
	"filename": "ch10099",
	"frame": {"x":906,"y":3280,"w":302,"h":205},
	"rotated": false,
	"trimmed": false,
	"spriteSourceSize": {"x":0,"y":0,"w":302,"h":205},
	"sourceSize": {"w":302,"h":205}
}],
"meta": {
	"app": "Adobe Animate",
	"version": "18.0.1.115",
	"image": "answerchoice1.png",
	"format": "RGBA8888",
	"size": {"w":2048,"h":4096},
	"scale": "1"
}
}
