﻿{"frames": [

{
	"filename": "Option 1_mc  copy instance 10000",
	"frame": {"x":0,"y":0,"w":343,"h":344},
	"rotated": false,
	"trimmed": false,
	"spriteSourceSize": {"x":0,"y":0,"w":343,"h":344},
	"sourceSize": {"w":343,"h":344}
}
,{
	"filename": "Option 1_mc  copy instance 10001",
	"frame": {"x":343,"y":0,"w":343,"h":344},
	"rotated": false,
	"trimmed": false,
	"spriteSourceSize": {"x":0,"y":0,"w":343,"h":344},
	"sourceSize": {"w":343,"h":344}
}
,{
	"filename": "Option 1_mc  copy instance 10002",
	"frame": {"x":686,"y":0,"w":343,"h":344},
	"rotated": false,
	"trimmed": false,
	"spriteSourceSize": {"x":0,"y":0,"w":343,"h":344},
	"sourceSize": {"w":343,"h":344}
}
,{
	"filename": "Option 1_mc  copy instance 10003",
	"frame": {"x":1029,"y":0,"w":343,"h":344},
	"rotated": false,
	"trimmed": false,
	"spriteSourceSize": {"x":0,"y":0,"w":343,"h":344},
	"sourceSize": {"w":343,"h":344}
}
,{
	"filename": "Option 1_mc  copy instance 10004",
	"frame": {"x":1372,"y":0,"w":343,"h":344},
	"rotated": false,
	"trimmed": false,
	"spriteSourceSize": {"x":0,"y":0,"w":343,"h":344},
	"sourceSize": {"w":343,"h":344}
}
,{
	"filename": "Option 1_mc  copy instance 10005",
	"frame": {"x":0,"y":344,"w":343,"h":344},
	"rotated": false,
	"trimmed": false,
	"spriteSourceSize": {"x":0,"y":0,"w":343,"h":344},
	"sourceSize": {"w":343,"h":344}
}
,{
	"filename": "Option 1_mc  copy instance 10006",
	"frame": {"x":343,"y":344,"w":343,"h":344},
	"rotated": false,
	"trimmed": false,
	"spriteSourceSize": {"x":0,"y":0,"w":343,"h":344},
	"sourceSize": {"w":343,"h":344}
}
,{
	"filename": "Option 1_mc  copy instance 10007",
	"frame": {"x":686,"y":344,"w":343,"h":344},
	"rotated": false,
	"trimmed": false,
	"spriteSourceSize": {"x":0,"y":0,"w":343,"h":344},
	"sourceSize": {"w":343,"h":344}
}
,{
	"filename": "Option 1_mc  copy instance 10008",
	"frame": {"x":1029,"y":344,"w":343,"h":344},
	"rotated": false,
	"trimmed": false,
	"spriteSourceSize": {"x":0,"y":0,"w":343,"h":344},
	"sourceSize": {"w":343,"h":344}
}
,{
	"filename": "Option 1_mc  copy instance 10009",
	"frame": {"x":1372,"y":344,"w":343,"h":344},
	"rotated": false,
	"trimmed": false,
	"spriteSourceSize": {"x":0,"y":0,"w":343,"h":344},
	"sourceSize": {"w":343,"h":344}
}
,{
	"filename": "Option 1_mc  copy instance 10010",
	"frame": {"x":0,"y":688,"w":343,"h":344},
	"rotated": false,
	"trimmed": false,
	"spriteSourceSize": {"x":0,"y":0,"w":343,"h":344},
	"sourceSize": {"w":343,"h":344}
}
,{
	"filename": "Option 1_mc  copy instance 10011",
	"frame": {"x":343,"y":688,"w":343,"h":344},
	"rotated": false,
	"trimmed": false,
	"spriteSourceSize": {"x":0,"y":0,"w":343,"h":344},
	"sourceSize": {"w":343,"h":344}
}
,{
	"filename": "Option 1_mc  copy instance 10012",
	"frame": {"x":686,"y":688,"w":343,"h":344},
	"rotated": false,
	"trimmed": false,
	"spriteSourceSize": {"x":0,"y":0,"w":343,"h":344},
	"sourceSize": {"w":343,"h":344}
}
,{
	"filename": "Option 1_mc  copy instance 10013",
	"frame": {"x":1029,"y":688,"w":343,"h":344},
	"rotated": false,
	"trimmed": false,
	"spriteSourceSize": {"x":0,"y":0,"w":343,"h":344},
	"sourceSize": {"w":343,"h":344}
}
,{
	"filename": "Option 1_mc  copy instance 10014",
	"frame": {"x":1372,"y":688,"w":343,"h":344},
	"rotated": false,
	"trimmed": false,
	"spriteSourceSize": {"x":0,"y":0,"w":343,"h":344},
	"sourceSize": {"w":343,"h":344}
}
,{
	"filename": "Option 1_mc  copy instance 10015",
	"frame": {"x":0,"y":1032,"w":343,"h":344},
	"rotated": false,
	"trimmed": false,
	"spriteSourceSize": {"x":0,"y":0,"w":343,"h":344},
	"sourceSize": {"w":343,"h":344}
}
,{
	"filename": "Option 1_mc  copy instance 10016",
	"frame": {"x":343,"y":1032,"w":343,"h":344},
	"rotated": false,
	"trimmed": false,
	"spriteSourceSize": {"x":0,"y":0,"w":343,"h":344},
	"sourceSize": {"w":343,"h":344}
}
,{
	"filename": "Option 1_mc  copy instance 10017",
	"frame": {"x":686,"y":1032,"w":343,"h":344},
	"rotated": false,
	"trimmed": false,
	"spriteSourceSize": {"x":0,"y":0,"w":343,"h":344},
	"sourceSize": {"w":343,"h":344}
}
,{
	"filename": "Option 1_mc  copy instance 10018",
	"frame": {"x":1029,"y":1032,"w":343,"h":344},
	"rotated": false,
	"trimmed": false,
	"spriteSourceSize": {"x":0,"y":0,"w":343,"h":344},
	"sourceSize": {"w":343,"h":344}
}
,{
	"filename": "Option 1_mc  copy instance 10019",
	"frame": {"x":1372,"y":1032,"w":343,"h":344},
	"rotated": false,
	"trimmed": false,
	"spriteSourceSize": {"x":0,"y":0,"w":343,"h":344},
	"sourceSize": {"w":343,"h":344}
}
,{
	"filename": "Option 1_mc  copy instance 10020",
	"frame": {"x":0,"y":1376,"w":343,"h":344},
	"rotated": false,
	"trimmed": false,
	"spriteSourceSize": {"x":0,"y":0,"w":343,"h":344},
	"sourceSize": {"w":343,"h":344}
}
,{
	"filename": "Option 1_mc  copy instance 10021",
	"frame": {"x":343,"y":1376,"w":343,"h":344},
	"rotated": false,
	"trimmed": false,
	"spriteSourceSize": {"x":0,"y":0,"w":343,"h":344},
	"sourceSize": {"w":343,"h":344}
}
,{
	"filename": "Option 1_mc  copy instance 10022",
	"frame": {"x":686,"y":1376,"w":343,"h":344},
	"rotated": false,
	"trimmed": false,
	"spriteSourceSize": {"x":0,"y":0,"w":343,"h":344},
	"sourceSize": {"w":343,"h":344}
}
,{
	"filename": "Option 1_mc  copy instance 10023",
	"frame": {"x":1029,"y":1376,"w":343,"h":344},
	"rotated": false,
	"trimmed": false,
	"spriteSourceSize": {"x":0,"y":0,"w":343,"h":344},
	"sourceSize": {"w":343,"h":344}
}
,{
	"filename": "Option 1_mc  copy instance 10024",
	"frame": {"x":1372,"y":1376,"w":343,"h":344},
	"rotated": false,
	"trimmed": false,
	"spriteSourceSize": {"x":0,"y":0,"w":343,"h":344},
	"sourceSize": {"w":343,"h":344}
}
,{
	"filename": "Option 1_mc  copy instance 10025",
	"frame": {"x":0,"y":1720,"w":343,"h":344},
	"rotated": false,
	"trimmed": false,
	"spriteSourceSize": {"x":0,"y":0,"w":343,"h":344},
	"sourceSize": {"w":343,"h":344}
}
,{
	"filename": "Option 1_mc  copy instance 10026",
	"frame": {"x":343,"y":1720,"w":343,"h":344},
	"rotated": false,
	"trimmed": false,
	"spriteSourceSize": {"x":0,"y":0,"w":343,"h":344},
	"sourceSize": {"w":343,"h":344}
}
,{
	"filename": "Option 1_mc  copy instance 10027",
	"frame": {"x":686,"y":1720,"w":343,"h":344},
	"rotated": false,
	"trimmed": false,
	"spriteSourceSize": {"x":0,"y":0,"w":343,"h":344},
	"sourceSize": {"w":343,"h":344}
}
,{
	"filename": "Option 1_mc  copy instance 10028",
	"frame": {"x":1029,"y":1720,"w":343,"h":344},
	"rotated": false,
	"trimmed": false,
	"spriteSourceSize": {"x":0,"y":0,"w":343,"h":344},
	"sourceSize": {"w":343,"h":344}
}
,{
	"filename": "Option 1_mc  copy instance 10029",
	"frame": {"x":1372,"y":1720,"w":343,"h":344},
	"rotated": false,
	"trimmed": false,
	"spriteSourceSize": {"x":0,"y":0,"w":343,"h":344},
	"sourceSize": {"w":343,"h":344}
}
,{
	"filename": "Option 1_mc  copy instance 10030",
	"frame": {"x":0,"y":2064,"w":343,"h":344},
	"rotated": false,
	"trimmed": false,
	"spriteSourceSize": {"x":0,"y":0,"w":343,"h":344},
	"sourceSize": {"w":343,"h":344}
}
,{
	"filename": "Option 1_mc  copy instance 10031",
	"frame": {"x":343,"y":2064,"w":343,"h":344},
	"rotated": false,
	"trimmed": false,
	"spriteSourceSize": {"x":0,"y":0,"w":343,"h":344},
	"sourceSize": {"w":343,"h":344}
}],
"meta": {
	"app": "Adobe Animate",
	"version": "18.0.1.115",
	"image": "ChoiceImages2.png",
	"format": "RGBA8888",
	"size": {"w":2048,"h":4096},
	"scale": "1"
}
}
