﻿{"frames": [

{
	"filename": "qus instance 10000",
	"frame": {"x":0,"y":0,"w":313,"h":313},
	"rotated": false,
	"trimmed": false,
	"spriteSourceSize": {"x":0,"y":0,"w":313,"h":313},
	"sourceSize": {"w":313,"h":313}
}
,{
	"filename": "qus instance 10001",
	"frame": {"x":313,"y":0,"w":313,"h":313},
	"rotated": false,
	"trimmed": false,
	"spriteSourceSize": {"x":0,"y":0,"w":313,"h":313},
	"sourceSize": {"w":313,"h":313}
}
,{
	"filename": "qus instance 10002",
	"frame": {"x":626,"y":0,"w":313,"h":313},
	"rotated": false,
	"trimmed": false,
	"spriteSourceSize": {"x":0,"y":0,"w":313,"h":313},
	"sourceSize": {"w":313,"h":313}
}
,{
	"filename": "qus instance 10003",
	"frame": {"x":939,"y":0,"w":313,"h":313},
	"rotated": false,
	"trimmed": false,
	"spriteSourceSize": {"x":0,"y":0,"w":313,"h":313},
	"sourceSize": {"w":313,"h":313}
}
,{
	"filename": "qus instance 10004",
	"frame": {"x":1252,"y":0,"w":313,"h":313},
	"rotated": false,
	"trimmed": false,
	"spriteSourceSize": {"x":0,"y":0,"w":313,"h":313},
	"sourceSize": {"w":313,"h":313}
}
,{
	"filename": "qus instance 10005",
	"frame": {"x":1565,"y":0,"w":313,"h":313},
	"rotated": false,
	"trimmed": false,
	"spriteSourceSize": {"x":0,"y":0,"w":313,"h":313},
	"sourceSize": {"w":313,"h":313}
}
,{
	"filename": "qus instance 10006",
	"frame": {"x":0,"y":313,"w":313,"h":313},
	"rotated": false,
	"trimmed": false,
	"spriteSourceSize": {"x":0,"y":0,"w":313,"h":313},
	"sourceSize": {"w":313,"h":313}
}
,{
	"filename": "qus instance 10007",
	"frame": {"x":313,"y":313,"w":313,"h":313},
	"rotated": false,
	"trimmed": false,
	"spriteSourceSize": {"x":0,"y":0,"w":313,"h":313},
	"sourceSize": {"w":313,"h":313}
}
,{
	"filename": "qus instance 10008",
	"frame": {"x":626,"y":313,"w":313,"h":313},
	"rotated": false,
	"trimmed": false,
	"spriteSourceSize": {"x":0,"y":0,"w":313,"h":313},
	"sourceSize": {"w":313,"h":313}
}
,{
	"filename": "qus instance 10009",
	"frame": {"x":939,"y":313,"w":313,"h":313},
	"rotated": false,
	"trimmed": false,
	"spriteSourceSize": {"x":0,"y":0,"w":313,"h":313},
	"sourceSize": {"w":313,"h":313}
}
,{
	"filename": "qus instance 10010",
	"frame": {"x":1252,"y":313,"w":313,"h":313},
	"rotated": false,
	"trimmed": false,
	"spriteSourceSize": {"x":0,"y":0,"w":313,"h":313},
	"sourceSize": {"w":313,"h":313}
}
,{
	"filename": "qus instance 10011",
	"frame": {"x":1565,"y":313,"w":313,"h":313},
	"rotated": false,
	"trimmed": false,
	"spriteSourceSize": {"x":0,"y":0,"w":313,"h":313},
	"sourceSize": {"w":313,"h":313}
}
,{
	"filename": "qus instance 10012",
	"frame": {"x":0,"y":626,"w":313,"h":313},
	"rotated": false,
	"trimmed": false,
	"spriteSourceSize": {"x":0,"y":0,"w":313,"h":313},
	"sourceSize": {"w":313,"h":313}
}
,{
	"filename": "qus instance 10013",
	"frame": {"x":313,"y":626,"w":313,"h":313},
	"rotated": false,
	"trimmed": false,
	"spriteSourceSize": {"x":0,"y":0,"w":313,"h":313},
	"sourceSize": {"w":313,"h":313}
}
,{
	"filename": "qus instance 10014",
	"frame": {"x":626,"y":626,"w":313,"h":313},
	"rotated": false,
	"trimmed": false,
	"spriteSourceSize": {"x":0,"y":0,"w":313,"h":313},
	"sourceSize": {"w":313,"h":313}
}
,{
	"filename": "qus instance 10015",
	"frame": {"x":939,"y":626,"w":313,"h":313},
	"rotated": false,
	"trimmed": false,
	"spriteSourceSize": {"x":0,"y":0,"w":313,"h":313},
	"sourceSize": {"w":313,"h":313}
}
,{
	"filename": "qus instance 10016",
	"frame": {"x":1252,"y":626,"w":313,"h":313},
	"rotated": false,
	"trimmed": false,
	"spriteSourceSize": {"x":0,"y":0,"w":313,"h":313},
	"sourceSize": {"w":313,"h":313}
}
,{
	"filename": "qus instance 10017",
	"frame": {"x":1565,"y":626,"w":313,"h":313},
	"rotated": false,
	"trimmed": false,
	"spriteSourceSize": {"x":0,"y":0,"w":313,"h":313},
	"sourceSize": {"w":313,"h":313}
}
,{
	"filename": "qus instance 10018",
	"frame": {"x":0,"y":939,"w":313,"h":313},
	"rotated": false,
	"trimmed": false,
	"spriteSourceSize": {"x":0,"y":0,"w":313,"h":313},
	"sourceSize": {"w":313,"h":313}
}
,{
	"filename": "qus instance 10019",
	"frame": {"x":313,"y":939,"w":313,"h":313},
	"rotated": false,
	"trimmed": false,
	"spriteSourceSize": {"x":0,"y":0,"w":313,"h":313},
	"sourceSize": {"w":313,"h":313}
}],
"meta": {
	"app": "Adobe Animate",
	"version": "18.0.1.115",
	"image": "question1.png",
	"format": "RGBA8888",
	"size": {"w":2048,"h":2048},
	"scale": "1"
}
}
