﻿{"frames": [

{
	"filename": "Shapes qust copy 2 instance 10000",
	"frame": {"x":0,"y":0,"w":350,"h":350},
	"rotated": false,
	"trimmed": false,
	"spriteSourceSize": {"x":0,"y":0,"w":350,"h":350},
	"sourceSize": {"w":350,"h":350}
}
,{
	"filename": "Shapes qust copy 2 instance 10001",
	"frame": {"x":350,"y":0,"w":350,"h":350},
	"rotated": false,
	"trimmed": false,
	"spriteSourceSize": {"x":0,"y":0,"w":350,"h":350},
	"sourceSize": {"w":350,"h":350}
}
,{
	"filename": "Shapes qust copy 2 instance 10002",
	"frame": {"x":700,"y":0,"w":350,"h":350},
	"rotated": false,
	"trimmed": false,
	"spriteSourceSize": {"x":0,"y":0,"w":350,"h":350},
	"sourceSize": {"w":350,"h":350}
}
,{
	"filename": "Shapes qust copy 2 instance 10003",
	"frame": {"x":1050,"y":0,"w":350,"h":350},
	"rotated": false,
	"trimmed": false,
	"spriteSourceSize": {"x":0,"y":0,"w":350,"h":350},
	"sourceSize": {"w":350,"h":350}
}
,{
	"filename": "Shapes qust copy 2 instance 10004",
	"frame": {"x":1400,"y":0,"w":350,"h":350},
	"rotated": false,
	"trimmed": false,
	"spriteSourceSize": {"x":0,"y":0,"w":350,"h":350},
	"sourceSize": {"w":350,"h":350}
}
,{
	"filename": "Shapes qust copy 2 instance 10005",
	"frame": {"x":0,"y":350,"w":350,"h":350},
	"rotated": false,
	"trimmed": false,
	"spriteSourceSize": {"x":0,"y":0,"w":350,"h":350},
	"sourceSize": {"w":350,"h":350}
}
,{
	"filename": "Shapes qust copy 2 instance 10006",
	"frame": {"x":350,"y":350,"w":350,"h":350},
	"rotated": false,
	"trimmed": false,
	"spriteSourceSize": {"x":0,"y":0,"w":350,"h":350},
	"sourceSize": {"w":350,"h":350}
}
,{
	"filename": "Shapes qust copy 2 instance 10007",
	"frame": {"x":700,"y":350,"w":350,"h":350},
	"rotated": false,
	"trimmed": false,
	"spriteSourceSize": {"x":0,"y":0,"w":350,"h":350},
	"sourceSize": {"w":350,"h":350}
}
,{
	"filename": "Shapes qust copy 2 instance 10008",
	"frame": {"x":1050,"y":350,"w":350,"h":350},
	"rotated": false,
	"trimmed": false,
	"spriteSourceSize": {"x":0,"y":0,"w":350,"h":350},
	"sourceSize": {"w":350,"h":350}
}
,{
	"filename": "Shapes qust copy 2 instance 10009",
	"frame": {"x":1400,"y":350,"w":350,"h":350},
	"rotated": false,
	"trimmed": false,
	"spriteSourceSize": {"x":0,"y":0,"w":350,"h":350},
	"sourceSize": {"w":350,"h":350}
}
,{
	"filename": "Shapes qust copy 2 instance 10010",
	"frame": {"x":0,"y":700,"w":350,"h":350},
	"rotated": false,
	"trimmed": false,
	"spriteSourceSize": {"x":0,"y":0,"w":350,"h":350},
	"sourceSize": {"w":350,"h":350}
}
,{
	"filename": "Shapes qust copy 2 instance 10011",
	"frame": {"x":350,"y":700,"w":350,"h":350},
	"rotated": false,
	"trimmed": false,
	"spriteSourceSize": {"x":0,"y":0,"w":350,"h":350},
	"sourceSize": {"w":350,"h":350}
}],
"meta": {
	"app": "Adobe Animate",
	"version": "18.0.1.115",
	"image": "question1.png",
	"format": "RGBA8888",
	"size": {"w":2048,"h":2048},
	"scale": "1"
}
}
