﻿{"frames": [

{
	"filename": "Shapes qust copy 2 instance 10000",
	"frame": {"x":0,"y":0,"w":316,"h":315},
	"rotated": false,
	"trimmed": false,
	"spriteSourceSize": {"x":0,"y":0,"w":316,"h":315},
	"sourceSize": {"w":316,"h":315}
}
,{
	"filename": "Shapes qust copy 2 instance 10001",
	"frame": {"x":316,"y":0,"w":316,"h":315},
	"rotated": false,
	"trimmed": false,
	"spriteSourceSize": {"x":0,"y":0,"w":316,"h":315},
	"sourceSize": {"w":316,"h":315}
}
,{
	"filename": "Shapes qust copy 2 instance 10002",
	"frame": {"x":632,"y":0,"w":316,"h":315},
	"rotated": false,
	"trimmed": false,
	"spriteSourceSize": {"x":0,"y":0,"w":316,"h":315},
	"sourceSize": {"w":316,"h":315}
}
,{
	"filename": "Shapes qust copy 2 instance 10003",
	"frame": {"x":0,"y":315,"w":316,"h":315},
	"rotated": false,
	"trimmed": false,
	"spriteSourceSize": {"x":0,"y":0,"w":316,"h":315},
	"sourceSize": {"w":316,"h":315}
}
,{
	"filename": "Shapes qust copy 2 instance 10004",
	"frame": {"x":316,"y":315,"w":316,"h":315},
	"rotated": false,
	"trimmed": false,
	"spriteSourceSize": {"x":0,"y":0,"w":316,"h":315},
	"sourceSize": {"w":316,"h":315}
}
,{
	"filename": "Shapes qust copy 2 instance 10005",
	"frame": {"x":632,"y":315,"w":316,"h":315},
	"rotated": false,
	"trimmed": false,
	"spriteSourceSize": {"x":0,"y":0,"w":316,"h":315},
	"sourceSize": {"w":316,"h":315}
}
,{
	"filename": "Shapes qust copy 2 instance 10006",
	"frame": {"x":0,"y":630,"w":316,"h":315},
	"rotated": false,
	"trimmed": false,
	"spriteSourceSize": {"x":0,"y":0,"w":316,"h":315},
	"sourceSize": {"w":316,"h":315}
}
,{
	"filename": "Shapes qust copy 2 instance 10007",
	"frame": {"x":316,"y":630,"w":316,"h":315},
	"rotated": false,
	"trimmed": false,
	"spriteSourceSize": {"x":0,"y":0,"w":316,"h":315},
	"sourceSize": {"w":316,"h":315}
}
,{
	"filename": "Shapes qust copy 2 instance 10008",
	"frame": {"x":632,"y":630,"w":316,"h":315},
	"rotated": false,
	"trimmed": false,
	"spriteSourceSize": {"x":0,"y":0,"w":316,"h":315},
	"sourceSize": {"w":316,"h":315}
}
,{
	"filename": "Shapes qust copy 2 instance 10009",
	"frame": {"x":0,"y":945,"w":316,"h":315},
	"rotated": false,
	"trimmed": false,
	"spriteSourceSize": {"x":0,"y":0,"w":316,"h":315},
	"sourceSize": {"w":316,"h":315}
}
,{
	"filename": "Shapes qust copy 2 instance 10010",
	"frame": {"x":316,"y":945,"w":316,"h":315},
	"rotated": false,
	"trimmed": false,
	"spriteSourceSize": {"x":0,"y":0,"w":316,"h":315},
	"sourceSize": {"w":316,"h":315}
}
,{
	"filename": "Shapes qust copy 2 instance 10011",
	"frame": {"x":632,"y":945,"w":316,"h":315},
	"rotated": false,
	"trimmed": false,
	"spriteSourceSize": {"x":0,"y":0,"w":316,"h":315},
	"sourceSize": {"w":316,"h":315}
}],
"meta": {
	"app": "Adobe Animate",
	"version": "18.0.1.115",
	"image": "question.png",
	"format": "RGBA8888",
	"size": {"w":1024,"h":2048},
	"scale": "1"
}
}
