﻿{"frames": {

"Shapes qust copy 2 instance 10000":
{
	"frame": {"x":0,"y":0,"w":315,"h":315},
	"rotated": false,
	"trimmed": false,
	"spriteSourceSize": {"x":0,"y":0,"w":315,"h":315},
	"sourceSize": {"w":315,"h":315}
},
"Shapes qust copy 2 instance 10001":
{
	"frame": {"x":315,"y":0,"w":315,"h":315},
	"rotated": false,
	"trimmed": false,
	"spriteSourceSize": {"x":0,"y":0,"w":315,"h":315},
	"sourceSize": {"w":315,"h":315}
},
"Shapes qust copy 2 instance 10002":
{
	"frame": {"x":630,"y":0,"w":315,"h":315},
	"rotated": false,
	"trimmed": false,
	"spriteSourceSize": {"x":0,"y":0,"w":315,"h":315},
	"sourceSize": {"w":315,"h":315}
},
"Shapes qust copy 2 instance 10003":
{
	"frame": {"x":0,"y":315,"w":315,"h":315},
	"rotated": false,
	"trimmed": false,
	"spriteSourceSize": {"x":0,"y":0,"w":315,"h":315},
	"sourceSize": {"w":315,"h":315}
},
"Shapes qust copy 2 instance 10004":
{
	"frame": {"x":315,"y":315,"w":315,"h":315},
	"rotated": false,
	"trimmed": false,
	"spriteSourceSize": {"x":0,"y":0,"w":315,"h":315},
	"sourceSize": {"w":315,"h":315}
},
"Shapes qust copy 2 instance 10005":
{
	"frame": {"x":630,"y":315,"w":315,"h":315},
	"rotated": false,
	"trimmed": false,
	"spriteSourceSize": {"x":0,"y":0,"w":315,"h":315},
	"sourceSize": {"w":315,"h":315}
},
"Shapes qust copy 2 instance 10006":
{
	"frame": {"x":0,"y":630,"w":315,"h":315},
	"rotated": false,
	"trimmed": false,
	"spriteSourceSize": {"x":0,"y":0,"w":315,"h":315},
	"sourceSize": {"w":315,"h":315}
},
"Shapes qust copy 2 instance 10007":
{
	"frame": {"x":315,"y":630,"w":315,"h":315},
	"rotated": false,
	"trimmed": false,
	"spriteSourceSize": {"x":0,"y":0,"w":315,"h":315},
	"sourceSize": {"w":315,"h":315}
},
"Shapes qust copy 2 instance 10008":
{
	"frame": {"x":630,"y":630,"w":315,"h":315},
	"rotated": false,
	"trimmed": false,
	"spriteSourceSize": {"x":0,"y":0,"w":315,"h":315},
	"sourceSize": {"w":315,"h":315}
},
"Shapes qust copy 2 instance 10009":
{
	"frame": {"x":0,"y":945,"w":315,"h":315},
	"rotated": false,
	"trimmed": false,
	"spriteSourceSize": {"x":0,"y":0,"w":315,"h":315},
	"sourceSize": {"w":315,"h":315}
},
"Shapes qust copy 2 instance 10010":
{
	"frame": {"x":315,"y":945,"w":315,"h":315},
	"rotated": false,
	"trimmed": false,
	"spriteSourceSize": {"x":0,"y":0,"w":315,"h":315},
	"sourceSize": {"w":315,"h":315}
},
"Shapes qust copy 2 instance 10011":
{
	"frame": {"x":630,"y":945,"w":315,"h":315},
	"rotated": false,
	"trimmed": false,
	"spriteSourceSize": {"x":0,"y":0,"w":315,"h":315},
	"sourceSize": {"w":315,"h":315}
}},
"meta": {
	"app": "Adobe Animate",
	"version": "18.0.0.107",
	"image": "question1.png",
	"format": "RGBA8888",
	"size": {"w":1024,"h":2048},
	"scale": "1"
}
}
