﻿{"frames": [

{
	"filename": "ch1 instance 10000",
	"frame": {"x":0,"y":0,"w":317,"h":309},
	"rotated": false,
	"trimmed": false,
	"spriteSourceSize": {"x":0,"y":0,"w":317,"h":309},
	"sourceSize": {"w":317,"h":309}
}
,{
	"filename": "ch1 instance 10001",
	"frame": {"x":317,"y":0,"w":317,"h":309},
	"rotated": false,
	"trimmed": false,
	"spriteSourceSize": {"x":0,"y":0,"w":317,"h":309},
	"sourceSize": {"w":317,"h":309}
}
,{
	"filename": "ch1 instance 10002",
	"frame": {"x":634,"y":0,"w":317,"h":309},
	"rotated": false,
	"trimmed": false,
	"spriteSourceSize": {"x":0,"y":0,"w":317,"h":309},
	"sourceSize": {"w":317,"h":309}
}
,{
	"filename": "ch1 instance 10003",
	"frame": {"x":0,"y":309,"w":317,"h":309},
	"rotated": false,
	"trimmed": false,
	"spriteSourceSize": {"x":0,"y":0,"w":317,"h":309},
	"sourceSize": {"w":317,"h":309}
}
,{
	"filename": "ch1 instance 10004",
	"frame": {"x":317,"y":309,"w":317,"h":309},
	"rotated": false,
	"trimmed": false,
	"spriteSourceSize": {"x":0,"y":0,"w":317,"h":309},
	"sourceSize": {"w":317,"h":309}
}
,{
	"filename": "ch1 instance 10005",
	"frame": {"x":634,"y":309,"w":317,"h":309},
	"rotated": false,
	"trimmed": false,
	"spriteSourceSize": {"x":0,"y":0,"w":317,"h":309},
	"sourceSize": {"w":317,"h":309}
}
,{
	"filename": "ch1 instance 10006",
	"frame": {"x":0,"y":618,"w":317,"h":309},
	"rotated": false,
	"trimmed": false,
	"spriteSourceSize": {"x":0,"y":0,"w":317,"h":309},
	"sourceSize": {"w":317,"h":309}
}
,{
	"filename": "ch1 instance 10007",
	"frame": {"x":317,"y":618,"w":317,"h":309},
	"rotated": false,
	"trimmed": false,
	"spriteSourceSize": {"x":0,"y":0,"w":317,"h":309},
	"sourceSize": {"w":317,"h":309}
}
,{
	"filename": "ch1 instance 10008",
	"frame": {"x":634,"y":618,"w":317,"h":309},
	"rotated": false,
	"trimmed": false,
	"spriteSourceSize": {"x":0,"y":0,"w":317,"h":309},
	"sourceSize": {"w":317,"h":309}
}
,{
	"filename": "ch1 instance 10009",
	"frame": {"x":0,"y":927,"w":317,"h":309},
	"rotated": false,
	"trimmed": false,
	"spriteSourceSize": {"x":0,"y":0,"w":317,"h":309},
	"sourceSize": {"w":317,"h":309}
}
,{
	"filename": "ch1 instance 10010",
	"frame": {"x":317,"y":927,"w":317,"h":309},
	"rotated": false,
	"trimmed": false,
	"spriteSourceSize": {"x":0,"y":0,"w":317,"h":309},
	"sourceSize": {"w":317,"h":309}
}
,{
	"filename": "ch1 instance 10011",
	"frame": {"x":634,"y":927,"w":317,"h":309},
	"rotated": false,
	"trimmed": false,
	"spriteSourceSize": {"x":0,"y":0,"w":317,"h":309},
	"sourceSize": {"w":317,"h":309}
}],
"meta": {
	"app": "Adobe Animate",
	"version": "18.0.1.115",
	"image": "ChoiceImages1.png",
	"format": "RGBA8888",
	"size": {"w":1024,"h":2048},
	"scale": "1"
}
}
