﻿{"frames": {

"questiontxt0000":
{
	"frame": {"x":0,"y":0,"w":548,"h":104},
	"rotated": false,
	"trimmed": false,
	"spriteSourceSize": {"x":0,"y":0,"w":548,"h":104},
	"sourceSize": {"w":548,"h":104}
},
"questiontxt0001":
{
	"frame": {"x":0,"y":104,"w":548,"h":104},
	"rotated": false,
	"trimmed": false,
	"spriteSourceSize": {"x":0,"y":0,"w":548,"h":104},
	"sourceSize": {"w":548,"h":104}
}},
"meta": {
	"app": "Adobe Animate",
	"version": "18.0.0.107",
	"image": "questiontext.png",
	"format": "RGBA8888",
	"size": {"w":1024,"h":1024},
	"scale": "1"
}
}
