﻿{"frames": [

{
	"filename": "mc10000",
	"frame": {"x":0,"y":0,"w":391,"h":391},
	"rotated": false,
	"trimmed": false,
	"spriteSourceSize": {"x":0,"y":0,"w":391,"h":391},
	"sourceSize": {"w":391,"h":391}
}
,{
	"filename": "mc10001",
	"frame": {"x":391,"y":0,"w":391,"h":391},
	"rotated": false,
	"trimmed": false,
	"spriteSourceSize": {"x":0,"y":0,"w":391,"h":391},
	"sourceSize": {"w":391,"h":391}
}
,{
	"filename": "mc10002",
	"frame": {"x":782,"y":0,"w":391,"h":391},
	"rotated": false,
	"trimmed": false,
	"spriteSourceSize": {"x":0,"y":0,"w":391,"h":391},
	"sourceSize": {"w":391,"h":391}
}
,{
	"filename": "mc10003",
	"frame": {"x":1173,"y":0,"w":391,"h":391},
	"rotated": false,
	"trimmed": false,
	"spriteSourceSize": {"x":0,"y":0,"w":391,"h":391},
	"sourceSize": {"w":391,"h":391}
}
,{
	"filename": "mc10004",
	"frame": {"x":1564,"y":0,"w":391,"h":391},
	"rotated": false,
	"trimmed": false,
	"spriteSourceSize": {"x":0,"y":0,"w":391,"h":391},
	"sourceSize": {"w":391,"h":391}
}
,{
	"filename": "mc10005",
	"frame": {"x":0,"y":391,"w":391,"h":391},
	"rotated": false,
	"trimmed": false,
	"spriteSourceSize": {"x":0,"y":0,"w":391,"h":391},
	"sourceSize": {"w":391,"h":391}
}
,{
	"filename": "mc10006",
	"frame": {"x":391,"y":391,"w":391,"h":391},
	"rotated": false,
	"trimmed": false,
	"spriteSourceSize": {"x":0,"y":0,"w":391,"h":391},
	"sourceSize": {"w":391,"h":391}
}
,{
	"filename": "mc10007",
	"frame": {"x":782,"y":391,"w":391,"h":391},
	"rotated": false,
	"trimmed": false,
	"spriteSourceSize": {"x":0,"y":0,"w":391,"h":391},
	"sourceSize": {"w":391,"h":391}
}
,{
	"filename": "mc10008",
	"frame": {"x":1173,"y":391,"w":391,"h":391},
	"rotated": false,
	"trimmed": false,
	"spriteSourceSize": {"x":0,"y":0,"w":391,"h":391},
	"sourceSize": {"w":391,"h":391}
}
,{
	"filename": "mc10009",
	"frame": {"x":1564,"y":391,"w":391,"h":391},
	"rotated": false,
	"trimmed": false,
	"spriteSourceSize": {"x":0,"y":0,"w":391,"h":391},
	"sourceSize": {"w":391,"h":391}
}
,{
	"filename": "mc10010",
	"frame": {"x":0,"y":782,"w":391,"h":391},
	"rotated": false,
	"trimmed": false,
	"spriteSourceSize": {"x":0,"y":0,"w":391,"h":391},
	"sourceSize": {"w":391,"h":391}
}
,{
	"filename": "mc10011",
	"frame": {"x":391,"y":782,"w":391,"h":391},
	"rotated": false,
	"trimmed": false,
	"spriteSourceSize": {"x":0,"y":0,"w":391,"h":391},
	"sourceSize": {"w":391,"h":391}
}
,{
	"filename": "mc10012",
	"frame": {"x":782,"y":782,"w":391,"h":391},
	"rotated": false,
	"trimmed": false,
	"spriteSourceSize": {"x":0,"y":0,"w":391,"h":391},
	"sourceSize": {"w":391,"h":391}
}
,{
	"filename": "mc10013",
	"frame": {"x":1173,"y":782,"w":391,"h":391},
	"rotated": false,
	"trimmed": false,
	"spriteSourceSize": {"x":0,"y":0,"w":391,"h":391},
	"sourceSize": {"w":391,"h":391}
}
,{
	"filename": "mc10014",
	"frame": {"x":1564,"y":782,"w":391,"h":391},
	"rotated": false,
	"trimmed": false,
	"spriteSourceSize": {"x":0,"y":0,"w":391,"h":391},
	"sourceSize": {"w":391,"h":391}
}
,{
	"filename": "mc10015",
	"frame": {"x":0,"y":1173,"w":391,"h":391},
	"rotated": false,
	"trimmed": false,
	"spriteSourceSize": {"x":0,"y":0,"w":391,"h":391},
	"sourceSize": {"w":391,"h":391}
}
,{
	"filename": "mc10016",
	"frame": {"x":391,"y":1173,"w":391,"h":391},
	"rotated": false,
	"trimmed": false,
	"spriteSourceSize": {"x":0,"y":0,"w":391,"h":391},
	"sourceSize": {"w":391,"h":391}
}
,{
	"filename": "mc10017",
	"frame": {"x":782,"y":1173,"w":391,"h":391},
	"rotated": false,
	"trimmed": false,
	"spriteSourceSize": {"x":0,"y":0,"w":391,"h":391},
	"sourceSize": {"w":391,"h":391}
}
,{
	"filename": "mc10018",
	"frame": {"x":1173,"y":1173,"w":391,"h":391},
	"rotated": false,
	"trimmed": false,
	"spriteSourceSize": {"x":0,"y":0,"w":391,"h":391},
	"sourceSize": {"w":391,"h":391}
}
,{
	"filename": "mc10019",
	"frame": {"x":1564,"y":1173,"w":391,"h":391},
	"rotated": false,
	"trimmed": false,
	"spriteSourceSize": {"x":0,"y":0,"w":391,"h":391},
	"sourceSize": {"w":391,"h":391}
}],
"meta": {
	"app": "Adobe Animate",
	"version": "18.0.1.115",
	"image": "question.png",
	"format": "RGBA8888",
	"size": {"w":2048,"h":2048},
	"scale": "1"
}
}
